<?xml version="1.0" standalone="no"?>
<!DOCTYPE svg PUBLIC "-//W3C//DTD SVG 20010904//EN"
 "http://www.w3.org/TR/2001/REC-SVG-20010904/DTD/svg10.dtd">
<svg version="1.0" xmlns="http://www.w3.org/2000/svg"
 width="958.000000pt" height="958.000000pt" viewBox="0 0 958.000000 958.000000"
 preserveAspectRatio="xMidYMid meet">
<metadata>
Created by potrace 1.11, written by Peter Selinger 2001-2013
</metadata>
<g transform="translate(0.000000,958.000000) scale(0.100000,-0.100000)"
fill="#000000" stroke="none">
<path d="M4510 6410 l0 -220 -54 0 c-30 0 -57 -4 -60 -8 -4 -7 223 -213 243
-220 10 -3 239 200 240 213 1 11 -5 12 -66 14 l-43 1 0 220 0 220 -130 0 -130
0 0 -220z"/>
<path d="M7118 6523 c17 -2 47 -2 65 0 17 2 3 4 -33 4 -36 0 -50 -2 -32 -4z"/>
<path d="M7288 6523 c29 -2 74 -2 100 0 26 2 2 3 -53 3 -55 0 -76 -1 -47 -3z"/>
<path d="M7498 6523 c12 -2 32 -2 45 0 12 2 2 4 -23 4 -25 0 -35 -2 -22 -4z"/>
<path d="M7667 6523 c18 -2 50 -2 70 0 21 2 7 4 -32 4 -38 0 -55 -2 -38 -4z"/>
<path d="M7813 6523 c15 -2 37 -2 50 0 12 2 0 4 -28 4 -27 0 -38 -2 -22 -4z"/>
<path d="M7958 6523 c7 -3 16 -2 19 1 4 3 -2 6 -13 5 -11 0 -14 -3 -6 -6z"/>
<path d="M8113 6523 c37 -2 97 -2 135 0 37 2 6 3 -68 3 -74 0 -105 -1 -67 -3z"/>
<path d="M8358 6523 c12 -2 30 -2 40 0 9 3 -1 5 -23 4 -22 0 -30 -2 -17 -4z"/>
<path d="M8448 6523 c6 -2 18 -2 25 0 6 3 1 5 -13 5 -14 0 -19 -2 -12 -5z"/>
<path d="M8518 6523 c18 -2 45 -2 60 0 15 2 0 4 -33 4 -33 0 -45 -2 -27 -4z"/>
<path d="M8773 6523 c15 -2 37 -2 50 0 12 2 0 4 -28 4 -27 0 -38 -2 -22 -4z"/>
<path d="M8898 6523 c28 -2 76 -2 105 0 28 2 5 3 -53 3 -58 0 -81 -1 -52 -3z"/>
<path d="M9098 6523 c12 -2 32 -2 45 0 12 2 2 4 -23 4 -25 0 -35 -2 -22 -4z"/>
<path d="M9285 6523 l115 -4 0 -147 c0 -81 -3 -245 -7 -364 l-6 -218 -728 0
c-400 0 -734 3 -743 6 -12 5 -13 10 -5 25 6 13 6 19 -1 19 -5 0 -10 9 -10 19
0 24 -19 38 -29 22 -11 -17 -91 -20 -91 -4 0 17 -6 16 -34 -2 -21 -14 -24 -14
-30 1 -5 13 -9 15 -18 6 -7 -7 -27 -12 -44 -12 -26 0 -34 -5 -37 -22 l-4 -23
-2 22 c-1 21 -5 22 -93 20 l-93 -2 0 -38 0 -37 -137 0 c-80 0 -139 4 -143 10
-3 6 -13 10 -21 10 -9 0 -12 -5 -8 -12 5 -7 3 -8 -6 -3 -8 5 -11 23 -7 54 3
25 2 87 -2 136 -8 88 -8 86 -9 -57 l-2 -148 1160 0 1160 0 -2 373 -3 372 -118
0 -117 1 115 -3z m-1599 -709 c-5 -13 -2 -15 14 -11 11 3 23 1 26 -4 3 -5 -9
-9 -25 -9 -17 0 -31 2 -31 4 0 10 13 36 17 36 3 0 2 -7 -1 -16z m-178 -21
c-10 -2 -26 -2 -35 0 -10 3 -2 5 17 5 19 0 27 -2 18 -5z"/>
<path d="M7553 6490 c-4 -16 -8 -18 -19 -9 -8 6 -20 9 -29 6 -8 -4 -17 -2 -20
3 -4 6 -17 10 -31 10 -21 0 -24 -5 -24 -34 0 -19 5 -38 10 -41 6 -3 10 0 10 8
0 24 37 28 44 5 3 -15 9 -19 23 -13 10 4 26 7 36 7 13 -1 17 8 17 39 0 42 -9
52 -17 19z"/>
<path d="M7587 6503 c-11 -10 -8 -73 3 -73 6 0 10 10 11 23 1 22 1 22 8 -2 6
-22 11 -24 71 -23 95 0 92 -1 88 30 -3 26 -5 27 -55 25 -35 -1 -53 3 -53 10 0
8 -3 7 -9 -2 -7 -11 -13 -10 -33 3 -14 9 -28 13 -31 9z m63 -43 c0 -5 -4 -10
-10 -10 -5 0 -10 5 -10 10 0 6 5 10 10 10 6 0 10 -4 10 -10z m75 0 c-3 -5 -14
-10 -23 -10 -15 0 -15 2 -2 10 20 13 33 13 25 0z"/>
<path d="M7825 6486 c-25 -21 -28 -28 -19 -43 8 -13 23 -18 59 -18 45 1 49 3
52 28 4 31 -19 46 -41 28 -12 -10 -15 -8 -18 8 -3 21 -4 20 -33 -3z"/>
<path d="M8272 6494 c-15 -16 -46 -19 -37 -4 3 6 1 10 -4 10 -6 0 -11 -4 -11
-9 0 -5 -6 -9 -12 -8 -39 1 -58 -5 -58 -18 0 -8 -4 -15 -10 -15 -5 0 -10 6
-10 14 0 17 -49 31 -63 17 -6 -6 -16 -6 -27 2 -14 8 -22 8 -32 -1 -11 -8 -18
-8 -25 -1 -16 16 -33 2 -33 -26 0 -24 25 -41 36 -24 4 6 11 6 19 -1 8 -7 19
-9 25 -5 5 3 17 0 25 -8 8 -9 24 -13 36 -10 16 5 19 11 14 31 l-6 26 18 -22
c22 -26 73 -20 80 9 7 26 23 24 23 -2 0 -14 5 -19 15 -16 8 4 16 3 19 -1 2 -4
40 -7 83 -7 l78 0 3 28 c4 34 -6 66 -16 52 -16 -22 -49 -34 -61 -22 -10 9 -16
8 -27 -7 -14 -19 -14 -19 -14 1 0 28 -12 35 -28 17z"/>
<path d="M8473 6493 c-26 -18 -31 -61 -8 -69 8 -4 21 -1 28 4 8 7 18 7 27 2
24 -15 37 -12 43 12 7 26 -11 51 -31 43 -8 -3 -20 1 -26 9 -10 13 -14 12 -33
-1z"/>
<path d="M8600 6468 c0 -42 1 -43 36 -44 33 -1 35 1 32 29 -4 38 -25 46 -37
15 -10 -23 -10 -23 -10 4 -1 46 -21 43 -21 -4z"/>
<path d="M8800 6496 c-6 -8 -18 -12 -26 -9 -8 3 -21 0 -29 -7 -12 -10 -15 -9
-15 4 0 9 -4 16 -10 16 -5 0 -10 -15 -10 -34 0 -29 3 -33 25 -33 14 0 26 6 28
16 4 14 5 14 6 -1 0 -10 5 -18 10 -18 5 0 12 8 14 18 4 16 5 16 6 0 0 -10 5
-18 10 -18 5 0 12 8 14 18 4 15 5 15 6 1 1 -22 30 -32 48 -18 7 7 17 9 20 5 4
-4 13 4 20 16 l13 23 6 -22 c8 -27 21 -30 27 -5 4 16 5 16 6 0 0 -10 6 -18 11
-18 6 0 10 8 10 18 1 15 2 15 13 -3 12 -19 51 -26 73 -12 6 3 16 2 23 -3 8 -4
26 -4 41 0 17 5 32 4 38 -2 6 -6 16 -6 28 0 11 5 24 7 31 5 6 -2 13 4 16 14 4
17 5 17 6 1 2 -28 21 -21 21 6 0 31 -14 40 -41 26 -17 -10 -21 -8 -26 9 -7 26
-10 26 -34 -1 -16 -20 -18 -20 -19 -5 0 18 -20 25 -20 6 0 -6 -8 -8 -19 -4
-11 3 -22 1 -26 -5 -5 -8 -11 -8 -21 1 -17 14 -48 4 -38 -13 4 -7 -1 -6 -12 3
-15 13 -37 16 -106 14 -69 -2 -88 0 -88 11 0 18 -14 18 -30 0z m330 -36 c0 -5
-4 -10 -10 -10 -5 0 -10 5 -10 10 0 6 5 10 10 10 6 0 10 -4 10 -10z"/>
<path d="M7186 6483 c-12 -12 -6 -33 9 -33 8 0 15 6 15 14 0 17 -14 28 -24 19z"/>
<path d="M7431 6358 c-5 -13 -5 -31 1 -40 10 -21 48 -24 66 -6 9 9 12 9 12 0
0 -7 5 -12 10 -12 6 0 10 9 10 20 0 11 5 20 11 20 6 0 9 -12 7 -27 -2 -23 1
-29 21 -31 13 -2 27 1 31 7 3 6 23 12 43 13 28 1 37 6 40 22 4 21 5 21 12 -1
4 -13 16 -23 26 -23 15 0 19 7 19 40 0 22 -4 40 -10 40 -5 0 -10 -6 -10 -12 0
-10 -28 -13 -107 -13 -76 0 -110 4 -116 13 -14 21 -57 14 -66 -10z m49 -24 c0
-8 -7 -14 -15 -14 -15 0 -21 21 -9 33 10 9 24 -2 24 -19z"/>
<path d="M7900 6370 c-8 -4 -25 -12 -37 -19 -15 -7 -23 -7 -23 -1 0 5 -9 10
-20 10 -11 0 -20 -6 -20 -14 0 -8 -4 -17 -9 -20 -5 -4 -7 3 -4 14 4 15 0 20
-14 20 -15 0 -20 -7 -21 -30 l-1 -29 130 1 c100 1 129 4 129 15 0 7 5 13 10
13 6 0 10 -7 10 -15 0 -8 5 -15 11 -15 6 0 9 12 7 28 -3 24 -7 27 -35 26 -22
-1 -33 3 -33 12 0 19 -14 18 -31 -2 -11 -14 -14 -14 -24 -1 -6 8 -16 11 -25 7z
m0 -40 c0 -5 -7 -10 -15 -10 -8 0 -15 5 -15 10 0 6 7 10 15 10 8 0 15 -4 15
-10z m70 0 c0 -5 -4 -10 -10 -10 -5 0 -10 5 -10 10 0 6 5 10 10 10 6 0 10 -4
10 -10z"/>
<path d="M8103 6366 c-16 -7 -23 -20 -23 -38 0 -26 2 -27 54 -27 47 1 55 4 60
22 7 26 -6 40 -30 35 -11 -2 -23 1 -29 7 -7 8 -17 8 -32 1z"/>
<path d="M8488 6371 c-1 -6 -16 -12 -32 -14 -17 -2 -33 -11 -37 -23 -7 -17 -8
-17 -8 3 -1 21 -5 23 -63 21 -35 0 -69 -5 -75 -11 -9 -6 -13 -6 -13 3 0 6 -8
10 -17 8 -12 -2 -18 -13 -18 -29 -1 -25 2 -27 49 -27 28 0 52 -5 54 -11 5 -14
45 -14 58 -1 6 6 27 11 47 12 29 1 37 5 37 20 0 10 5 18 10 18 6 0 10 -9 10
-20 0 -11 5 -20 10 -20 6 0 10 18 10 40 0 36 -13 55 -22 31z m-101 -53 c-3 -7
-5 -2 -5 12 0 14 2 19 5 13 2 -7 2 -19 0 -25z"/>
<path d="M8543 6363 c-13 -9 -23 -26 -23 -39 0 -22 2 -23 88 -21 l87 2 3 29
c4 34 -14 58 -28 37 -9 -16 -75 -17 -94 -2 -7 5 -19 3 -33 -6z"/>
<path d="M7176 6351 c-7 -11 18 -33 27 -24 4 3 7 12 7 20 0 15 -26 18 -34 4z"/>
<path d="M70 5705 l0 -625 1120 0 1120 0 0 130 c0 72 3 130 8 130 4 0 139
-132 301 -294 l293 -293 -15 -64 c-33 -135 -40 -199 -40 -354 1 -177 19 -287
73 -444 16 -47 28 -86 27 -88 -2 -1 -142 66 -312 148 -341 166 -355 172 -355
161 0 -5 153 -82 340 -172 l340 -163 45 -82 c92 -170 211 -316 361 -446 79
-69 92 -84 77 -90 -14 -6 -12 -8 10 -8 17 -1 75 -29 138 -67 193 -117 419
-203 646 -246 102 -20 149 -23 353 -23 182 1 256 5 330 18 309 58 579 175 816
353 40 30 77 54 83 54 6 0 11 4 11 9 0 5 38 48 85 97 46 48 114 128 150 178
77 107 175 300 206 406 12 41 28 80 36 86 8 7 10 14 4 15 -7 3 -5 35 5 94 25
142 15 408 -21 544 -15 57 -23 107 -18 111 18 17 911 530 922 530 8 0 11 -51
11 -175 l0 -175 1160 0 1160 0 0 375 0 375 -1160 0 -1160 0 0 -184 0 -184
-237 -138 c-131 -76 -341 -198 -468 -272 -126 -73 -233 -134 -237 -135 -5 -1
-23 34 -41 78 -39 96 -109 218 -178 311 -42 55 -48 69 -37 80 46 44 1046 857
1061 861 9 3 17 15 17 26 l0 20 -22 -20 c-13 -11 -261 -215 -551 -452 l-528
-432 -108 103 c-137 132 -263 222 -426 303 -658 328 -1456 256 -2025 -184
-110 -85 -223 -199 -304 -309 -65 -87 -157 -254 -191 -345 -10 -26 -22 -50
-27 -53 -5 -4 -144 128 -309 292 l-299 298 0 478 0 478 -1120 0 -1120 0 0
-625z m2220 -5 l0 -610 -1105 0 -1105 0 0 610 0 610 1105 0 1105 0 0 -610z
m2635 136 c339 -60 655 -208 898 -420 46 -41 99 -93 117 -116 29 -36 32 -44
19 -54 -8 -6 -36 -28 -61 -48 -25 -21 -53 -38 -62 -38 -9 0 -21 -12 -26 -26
-13 -34 -14 -34 18 -34 30 0 60 15 50 26 -8 7 101 104 118 104 18 0 105 -127
171 -250 42 -78 88 -189 82 -194 -5 -3 -140 -81 -199 -114 -25 -13 -51 -29
-58 -35 -7 -5 -14 -8 -16 -6 -1 2 -20 33 -41 69 -203 343 -522 575 -933 679
-477 120 -990 19 -1374 -269 -177 -133 -323 -311 -409 -497 l-40 -86 -108 104
c-59 57 -113 114 -120 126 -12 19 -8 34 35 129 84 188 155 293 301 441 163
166 284 252 496 353 185 88 342 135 553 165 122 18 471 12 589 -9z m4605 -501
l0 -365 -265 0 -265 0 0 39 c0 55 -18 61 -22 9 l-3 -43 -135 -3 c-150 -3 -165
3 -153 59 3 18 1 29 -6 29 -12 0 -15 -18 -12 -63 l2 -27 -718 2 -718 3 -3 350
c-1 192 0 356 3 362 3 10 240 13 1150 13 l1145 0 0 -365z m-4640 44 c371 -64
705 -259 924 -539 49 -62 136 -202 136 -218 0 -15 -97 -72 -113 -66 -12 4 -47
-34 -47 -51 0 -3 15 -5 34 -5 24 0 35 5 39 18 2 9 27 29 55 45 l50 27 31 -84
c49 -138 66 -234 66 -393 0 -78 -3 -144 -6 -147 -7 -7 -199 -66 -216 -66 -7 0
-14 23 -18 58 -55 503 -439 889 -986 988 -124 23 -353 23 -475 1 -397 -72
-728 -305 -891 -629 l-28 -57 -124 121 -123 120 27 69 c34 88 118 221 201 320
237 280 614 468 1019 508 122 12 306 4 445 -20z m-15 -458 c129 -28 206 -55
320 -111 338 -167 564 -470 606 -813 14 -112 11 -118 -51 -122 -44 -2 -67 -16
-56 -34 10 -16 47 -14 60 3 6 8 21 17 34 21 19 6 22 3 22 -23 0 -120 -66 -331
-144 -459 -76 -125 -92 -139 -158 -147 -40 -5 -58 -4 -58 4 0 6 15 41 34 78
119 238 97 545 -55 769 -47 69 -155 178 -225 229 -78 56 -206 116 -319 151
-84 25 -103 27 -280 27 -165 1 -200 -2 -270 -21 -250 -69 -462 -217 -577 -403
-23 -38 -45 -70 -48 -70 -3 0 -61 54 -129 120 l-124 120 18 42 c36 82 128 214
208 296 191 195 459 325 747 362 104 14 343 3 445 -19z m1415 -263 c32 -139
43 -287 31 -420 -11 -127 -28 -208 -45 -213 -6 -1 -45 -12 -86 -24 -113 -32
-105 -38 -102 90 4 134 -17 276 -60 399 -16 47 -30 91 -31 98 -2 13 236 161
260 162 6 0 21 -40 33 -92z m-3239 -54 l116 -116 -25 -91 c-33 -128 -42 -354
-17 -483 16 -86 35 -159 50 -197 6 -14 -16 -7 -92 31 l-99 50 -27 69 c-73 191
-103 437 -77 640 12 93 40 213 48 213 4 0 59 -52 123 -116z m262 -252 l118
-118 -28 -99 c-24 -89 -27 -117 -27 -250 0 -113 4 -167 18 -218 10 -38 16 -70
14 -72 -2 -2 -47 17 -101 42 l-97 46 -25 79 c-50 159 -68 359 -45 508 13 81
42 200 50 200 3 0 58 -53 123 -118z m254 -253 c146 -143 136 -124 109 -199
-37 -103 -50 -222 -36 -330 7 -50 10 -93 8 -94 -1 -2 -49 19 -105 45 l-102 48
-16 53 c-50 174 -47 369 7 551 6 21 15 36 19 35 4 -2 56 -51 116 -109z m1226
-100 c232 -58 418 -230 471 -435 24 -94 21 -224 -8 -306 -34 -97 -70 -154
-145 -229 -62 -62 -159 -128 -212 -144 -18 -6 -12 5 28 45 157 156 156 380 -2
529 -182 172 -484 171 -658 -3 -50 -50 -107 -153 -107 -193 0 -13 -5 -23 -12
-23 -6 0 -60 23 -119 51 l-107 51 -6 42 c-8 51 7 161 30 224 27 72 33 77 62
50 13 -13 28 -33 32 -44 5 -12 21 -25 35 -28 34 -9 35 -8 28 27 -4 18 -15 32
-31 38 -14 6 -37 21 -50 34 l-24 24 21 35 c12 19 49 59 81 90 183 169 436 229
693 165z m1452 -114 c-74 -204 -206 -407 -364 -557 -69 -67 -86 -78 -116 -78
l-35 0 58 69 c83 99 131 172 184 281 45 92 98 252 98 295 0 12 6 29 13 38 13
17 190 69 195 57 1 -4 -13 -51 -33 -105z m-211 -48 c-40 -168 -132 -344 -259
-496 -69 -83 -78 -90 -120 -97 -25 -3 -48 -4 -51 -1 -3 3 17 38 44 79 111 165
151 280 185 538 3 21 211 81 215 62 2 -7 -4 -46 -14 -85z m-2921 -138 c83 -41
83 -42 122 -118 69 -135 126 -213 255 -342 80 -81 83 -85 53 -80 -103 18 -364
289 -502 522 -20 34 -27 59 -16 59 3 0 42 -19 88 -41z m221 -103 c76 -36 98
-51 107 -73 38 -101 120 -229 209 -326 27 -30 50 -57 50 -60 0 -2 -18 -1 -40
3 -90 16 -281 226 -395 433 -20 37 -34 67 -32 67 3 0 49 -20 101 -44z m1405
-45 c118 -37 211 -115 259 -220 38 -80 37 -192 0 -273 -33 -70 -97 -141 -163
-179 -69 -39 -86 -36 -40 8 20 20 44 51 51 69 21 49 18 130 -7 181 -19 40 -82
103 -103 103 -5 0 7 -12 27 -27 52 -40 87 -109 87 -172 0 -124 -107 -220 -246
-221 -130 0 -230 69 -254 176 l-8 37 51 -7 c29 -3 60 -6 70 -6 10 0 22 -11 27
-25 11 -29 35 -33 49 -7 10 16 10 16 11 0 0 -13 8 -17 30 -15 16 1 30 6 30 11
0 5 7 3 16 -5 12 -10 20 -10 35 -1 11 7 19 8 19 2 0 -5 5 -10 10 -10 6 0 10 8
10 18 0 14 -9 18 -41 19 -23 1 -51 9 -64 17 -13 9 -26 11 -31 6 -9 -9 -179 4
-212 15 -16 6 -6 46 14 58 7 4 11 14 8 21 -14 36 55 98 139 127 29 10 43 18
32 19 -35 0 -119 -45 -151 -82 -17 -19 -39 -37 -50 -40 -11 -3 -52 11 -94 31
-75 36 -75 36 -73 73 7 121 143 262 293 304 70 19 199 17 269 -5z m-1165 -68
c88 -44 95 -49 106 -87 17 -59 63 -141 119 -216 27 -36 48 -66 48 -67 -1 0
-23 1 -49 4 -42 5 -54 13 -113 72 -85 86 -144 166 -189 257 -20 40 -36 76 -36
79 0 12 24 3 114 -42z m469 -232 l104 -48 7 -48 c4 -26 10 -54 13 -63 6 -13
-3 -14 -63 -8 -44 4 -75 13 -86 24 -32 33 -102 192 -84 192 3 0 52 -22 109
-49z m1585 -59 c-18 -15 -40 -33 -48 -41 -45 -44 -317 -201 -347 -201 -4 0 18
16 50 35 84 50 155 105 227 174 50 47 72 61 99 63 52 5 55 0 19 -30z m122 17
c-86 -67 -335 -217 -345 -207 -3 2 24 20 58 40 34 20 101 68 148 106 82 67 98
76 144 79 18 2 17 0 -5 -18z m-275 -57 c-82 -79 -185 -148 -302 -205 -95 -45
-121 -45 -40 1 75 42 169 120 229 189 28 32 57 59 64 61 8 2 14 8 14 13 0 5
24 9 53 9 l52 -1 -70 -67z m-1232 12 c69 -35 98 -64 90 -92 -3 -13 -14 -23
-27 -23 -21 -2 -21 -2 1 -6 15 -3 24 -14 28 -36 9 -43 50 -112 77 -131 40 -28
10 -28 -42 0 -54 30 -160 135 -160 160 0 8 10 15 23 15 17 1 15 3 -8 8 -32 7
-53 47 -54 104 -1 34 6 34 72 1z m-543 -97 c41 -28 80 -54 85 -60 15 -15 -170
84 -197 105 l-23 19 30 -7 c16 -4 63 -30 105 -57z m92 1 c25 -20 74 -52 107
-72 34 -21 61 -39 61 -41 0 -7 -74 27 -140 64 -114 66 -140 83 -140 91 0 17
68 -9 112 -42z m147 -33 c45 -35 104 -76 132 -92 87 -47 36 -37 -63 13 -83 41
-218 128 -218 140 0 2 15 4 33 4 26 0 52 -14 116 -65z m204 19 c32 -6 43 -15
73 -60 20 -30 55 -70 77 -90 23 -20 38 -34 32 -31 -5 2 -28 13 -50 23 -58 26
-145 86 -184 128 -34 35 -35 36 -10 36 13 0 41 -3 62 -6z m382 -53 c3 -5 1
-12 -5 -16 -5 -3 -10 1 -10 9 0 18 6 21 15 7z"/>
<path d="M422 6231 c-8 -4 -12 -21 -10 -37 3 -29 4 -29 71 -29 48 -1 67 3 67
12 0 7 5 13 10 13 6 0 10 -7 10 -15 0 -23 18 -18 23 8 l4 22 2 -22 c2 -32 48
-32 60 -1 8 21 8 21 13 1 5 -18 14 -20 102 -21 l97 -2 -4 28 c-4 27 -37 46
-37 21 0 -10 -3 -10 -12 -1 -16 16 -45 15 -51 0 -3 -7 -6 -3 -6 10 -1 12 -5
22 -11 22 -5 0 -10 -10 -10 -22 0 -15 -3 -19 -8 -10 -5 7 -26 11 -53 10 -24
-1 -50 1 -56 5 -7 5 -19 5 -25 0 -7 -4 -37 -7 -67 -6 -45 2 -54 -1 -58 -18 -7
-25 -46 -26 -41 -1 2 9 9 17 16 17 16 0 17 19 0 22 -7 2 -19 -1 -26 -6z m88
-41 c0 -5 -4 -10 -10 -10 -5 0 -10 5 -10 10 0 6 5 10 10 10 6 0 10 -4 10 -10z"/>
<path d="M930 6230 c0 -5 -6 -10 -14 -10 -16 0 -31 -34 -21 -49 3 -5 30 -10
61 -10 54 0 55 1 52 27 -2 23 -8 27 -30 25 -19 -1 -28 3 -28 13 0 8 -4 14 -10
14 -5 0 -10 -4 -10 -10z"/>
<path d="M1464 6226 c-3 -8 -13 -12 -26 -8 -14 3 -26 -1 -34 -13 -11 -15 -14
-16 -14 -4 0 13 -13 16 -63 16 -35 0 -74 4 -85 7 -12 4 -22 4 -22 -1 0 -5 -39
-8 -87 -8 -87 0 -88 0 -88 -25 0 -24 3 -25 67 -27 61 -1 67 1 71 20 4 22 4 22
6 0 1 -27 18 -30 24 -5 4 16 5 16 6 0 2 -27 61 -25 61 2 0 11 5 20 10 20 6 0
10 -9 10 -20 0 -18 6 -20 73 -19 42 1 75 6 79 13 6 8 8 8 8 -1 0 -7 5 -13 10
-13 6 0 10 7 10 15 0 8 5 15 10 15 6 0 10 -7 10 -15 0 -11 13 -14 60 -14 59 1
60 2 57 28 -4 24 -7 26 -55 25 -37 -1 -52 3 -52 13 0 17 -39 17 -46 -1z m-374
-36 c0 -5 -7 -10 -16 -10 -8 0 -12 5 -9 10 3 6 10 10 16 10 5 0 9 -4 9 -10z
m40 0 c0 -5 -5 -10 -11 -10 -5 0 -7 5 -4 10 3 6 8 10 11 10 2 0 4 -4 4 -10z"/>
<path d="M156 6211 c-7 -11 18 -33 27 -24 4 3 7 12 7 20 0 15 -26 18 -34 4z"/>
<path d="M1630 6170 c0 -5 5 -10 10 -10 6 0 10 5 10 10 0 6 -4 10 -10 10 -5 0
-10 -4 -10 -10z"/>
<path d="M414 6106 c-3 -8 -4 -27 -2 -43 l3 -28 90 2 c50 2 98 3 108 4 9 0 17
8 18 17 0 13 2 12 9 -4 7 -18 15 -20 72 -17 34 1 70 3 80 4 9 0 19 10 23 22 7
21 7 21 12 2 7 -27 18 -32 61 -31 34 1 37 3 37 30 l0 30 -67 1 c-56 2 -68 -1
-68 -14 -1 -14 -2 -13 -11 2 -5 9 -16 17 -24 17 -7 0 -16 -8 -18 -17 -4 -14
-5 -13 -6 4 -1 20 -21 45 -21 26 0 -16 -46 -30 -64 -19 -13 9 -20 7 -31 -8
-13 -18 -14 -17 -21 8 -6 26 -7 26 -25 10 -15 -13 -22 -14 -33 -5 -9 7 -17 8
-20 2 -3 -5 -15 -7 -26 -4 -11 3 -20 0 -20 -6 0 -6 -5 -11 -11 -11 -6 0 -9 6
-6 14 3 8 -1 17 -9 20 -22 8 -24 8 -30 -8z m133 -48 c-3 -8 -6 -5 -6 6 -1 11
2 17 5 13 3 -3 4 -12 1 -19z m-77 2 c0 -5 -4 -10 -9 -10 -6 0 -13 5 -16 10 -3
6 1 10 9 10 9 0 16 -4 16 -10z"/>
<path d="M1000 6114 c0 -7 -9 -14 -21 -17 -16 -4 -20 -12 -17 -33 3 -27 6 -28
55 -30 44 -1 52 2 57 19 6 25 -11 49 -33 45 -9 -2 -21 3 -28 12 -7 8 -13 10
-13 4z"/>
<path d="M1270 6113 c0 -7 -7 -13 -15 -13 -9 0 -18 -7 -21 -15 -6 -14 -8 -13
-20 2 -10 14 -17 16 -31 7 -13 -8 -23 -8 -36 0 -25 15 -51 -18 -36 -45 13 -26
38 -24 49 4 7 17 9 18 9 5 1 -10 5 -18 10 -18 5 0 12 8 14 18 4 16 5 16 6 0 1
-20 21 -25 21 -5 0 8 3 7 10 -3 7 -11 27 -15 74 -15 56 0 66 3 70 19 5 18 6
18 25 -5 17 -20 23 -22 39 -12 11 6 23 9 27 5 4 -4 24 -7 46 -7 30 0 39 4 39
18 0 25 18 21 23 -5 4 -23 4 -23 15 2 8 18 11 20 11 8 1 -10 6 -18 12 -18 6 0
9 12 7 28 -3 25 -6 27 -50 26 -35 0 -48 4 -51 15 -3 10 -5 7 -6 -7 -1 -16 -5
-21 -13 -15 -7 4 -48 8 -90 8 -68 1 -78 -2 -78 -17 0 -10 -4 -18 -10 -18 -5 0
-10 10 -10 22 0 12 -3 18 -7 15 -3 -4 -12 1 -19 11 -8 10 -13 12 -14 5z m233
-50 c-7 -2 -19 -2 -25 0 -7 3 -2 5 12 5 14 0 19 -2 13 -5z"/>
<path d="M1630 6083 c0 -28 4 -43 13 -43 6 0 22 -3 35 -6 17 -5 22 -2 23 12 0
11 3 14 6 7 7 -19 31 -16 36 5 4 15 5 15 6 -2 1 -11 6 -16 15 -13 8 3 17 3 20
0 3 -3 21 -7 41 -9 26 -2 37 2 45 15 13 24 -10 57 -34 48 -10 -4 -26 -3 -35 3
-10 5 -21 6 -25 3 -3 -3 -32 -7 -63 -8 -42 -1 -61 3 -70 14 -10 13 -12 9 -13
-26z"/>
<path d="M156 6085 c-3 -9 1 -18 10 -22 19 -7 28 2 21 22 -8 19 -23 19 -31 0z"/>
<path d="M1880 6044 c0 -8 5 -12 10 -9 6 3 10 10 10 16 0 5 -4 9 -10 9 -5 0
-10 -7 -10 -16z"/>
<path d="M410 5951 l0 -38 95 -1 95 -1 0 27 c0 37 -17 62 -29 43 -5 -7 -17
-11 -27 -7 -30 9 -79 -8 -76 -27 2 -10 -4 -17 -12 -17 -12 0 -14 5 -6 26 13
34 13 34 -15 34 -22 0 -25 -4 -25 -39z"/>
<path d="M688 5969 c-16 -11 -28 -16 -28 -10 0 6 -11 11 -25 11 -21 0 -25 -5
-25 -30 0 -34 20 -42 21 -7 0 21 1 21 8 2 7 -17 20 -21 71 -23 44 -2 65 1 71
10 7 10 9 10 9 1 0 -19 17 -16 24 5 3 9 9 23 12 30 3 7 -2 12 -14 12 -11 0
-23 -8 -25 -17 -4 -17 -5 -17 -6 0 -1 10 -9 17 -20 17 -11 0 -22 -8 -24 -17
-3 -11 -5 -7 -6 10 -1 32 -7 33 -43 6z"/>
<path d="M890 5981 c0 -5 -9 -11 -21 -14 -15 -4 -20 -12 -17 -29 3 -22 7 -23
73 -23 l70 0 3 38 c2 21 -1 37 -7 37 -6 0 -11 -6 -11 -13 0 -9 -12 -13 -35
-13 -21 1 -35 6 -35 14 0 6 -4 12 -10 12 -5 0 -10 -4 -10 -9z"/>
<path d="M1290 5978 c0 -10 -29 -13 -130 -12 l-130 2 0 -39 c0 -37 14 -53 22
-27 3 8 21 12 46 11 31 -1 42 2 45 15 4 16 5 15 6 0 1 -25 17 -22 25 5 l7 22
10 -24 c9 -23 10 -24 24 -5 13 17 14 17 15 2 0 -26 18 -22 23 5 4 20 4 20 6 1
1 -19 7 -20 79 -20 72 1 77 2 80 24 4 27 -23 40 -49 23 -14 -8 -19 -8 -19 0 0
7 -10 9 -26 5 -16 -4 -23 -3 -20 3 4 5 2 12 -4 16 -5 3 -10 0 -10 -7z m110
-38 c0 -5 -4 -10 -10 -10 -5 0 -10 5 -10 10 0 6 5 10 10 10 6 0 10 -4 10 -10z"/>
<path d="M1545 5977 c-4 -8 -21 -11 -50 -9 -44 4 -45 4 -45 -27 0 -36 17 -42
23 -8 l4 22 2 -22 c1 -25 21 -32 21 -8 0 8 5 15 10 15 6 0 9 -6 8 -12 -2 -7 7
-14 18 -16 19 -3 22 3 26 37 3 39 -7 56 -17 28z"/>
<path d="M1630 5968 c-5 -13 -9 -17 -9 -10 -1 6 -12 12 -26 12 -21 0 -25 -5
-25 -30 0 -34 20 -42 21 -7 0 20 1 20 8 3 4 -11 17 -21 29 -23 20 -2 22 2 22
37 0 45 -6 51 -20 18z"/>
<path d="M156 5962 c-8 -13 11 -35 23 -28 16 10 14 36 -3 36 -8 0 -17 -4 -20
-8z"/>
<path d="M1660 5940 c0 -16 5 -30 10 -30 6 0 10 8 10 18 1 16 1 16 11 -1 10
-18 11 -18 25 0 12 16 13 16 14 1 0 -12 9 -16 38 -15 32 2 37 5 37 27 0 24 -3
25 -72 28 l-73 2 0 -30z m130 0 c0 -5 -4 -10 -10 -10 -5 0 -10 5 -10 10 0 6 5
10 10 10 6 0 10 -4 10 -10z"/>
<path d="M1820 5920 c0 -5 5 -10 10 -10 6 0 10 5 10 10 0 6 -4 10 -10 10 -5 0
-10 -4 -10 -10z"/>
<path d="M672 5848 c-19 -19 -22 -20 -22 -5 0 9 -4 17 -10 17 -5 0 -10 -5 -10
-11 0 -8 -4 -8 -14 0 -8 7 -17 8 -20 3 -3 -6 -26 -10 -50 -9 -25 0 -52 -6 -61
-13 -15 -12 -16 -11 -13 6 2 15 -3 19 -27 19 -26 0 -30 -4 -33 -32 -2 -23 1
-33 15 -36 27 -8 206 -3 220 6 6 4 14 3 18 -3 10 -16 68 -5 75 16 6 16 8 15
15 -7 l8 -24 4 29 c6 38 -11 55 -37 38 -18 -11 -22 -10 -28 8 -7 20 -8 20 -30
-2z m-218 -15 c-5 -5 -12 -12 -16 -18 -4 -6 -8 -2 -8 8 0 9 7 17 17 17 9 0 12
-3 7 -7z m173 -25 c-3 -8 -6 -5 -6 6 -1 11 2 17 5 13 3 -3 4 -12 1 -19z"/>
<path d="M822 5844 c-30 -21 -26 -58 7 -62 13 -2 28 2 32 10 7 11 9 11 9 0 0
-25 45 -9 48 17 4 29 -15 43 -40 30 -14 -7 -18 -6 -18 6 0 19 -10 19 -38 -1z"/>
<path d="M1170 5852 c0 -7 -17 -10 -45 -8 -32 2 -48 -1 -54 -11 -7 -13 -9 -13
-14 -1 -5 14 -21 15 -94 9 -8 -1 -13 -15 -13 -37 0 -32 2 -35 23 -28 12 5 37
7 55 6 18 -1 32 3 32 9 0 8 5 8 15 -1 13 -10 15 -9 15 9 0 27 16 27 23 1 4
-16 12 -19 38 -16 21 2 35 10 40 22 7 18 8 18 8 -2 1 -19 7 -21 61 -21 33 0
63 3 65 8 3 4 1 19 -4 32 -8 22 -15 25 -46 22 -21 -2 -40 -6 -43 -9 -3 -3 -11
-1 -19 5 -7 6 -13 8 -13 4 0 -4 -7 -2 -15 5 -10 8 -15 9 -15 2z m-13 -38 c-3
-3 -12 -4 -19 -1 -8 3 -5 6 6 6 11 1 17 -2 13 -5z"/>
<path d="M1370 5842 c-30 -24 -20 -62 16 -62 13 0 24 5 24 11 0 8 5 8 15 -1
21 -18 45 -5 45 24 0 31 -14 40 -40 26 -16 -9 -20 -8 -20 5 0 20 -13 19 -40
-3z"/>
<path d="M1503 5845 c-3 -9 2 -22 13 -31 19 -14 19 -14 0 -7 -13 4 -17 2 -14
-8 3 -9 20 -14 54 -14 27 0 55 -6 62 -12 7 -7 17 -13 22 -13 5 0 15 6 22 13 7
6 30 12 50 12 28 -1 38 4 43 20 6 20 6 20 14 0 7 -18 18 -20 120 -21 62 0 114
3 117 8 3 4 -2 8 -10 8 -11 0 -16 10 -16 31 0 27 -3 30 -22 24 -13 -4 -27 -11
-32 -16 -5 -4 -17 -4 -27 2 -13 7 -20 5 -28 -8 -9 -16 -10 -16 -11 5 0 26 -2
27 -40 7 -28 -14 -30 -14 -30 2 0 14 -2 15 -9 5 -4 -8 -11 -13 -15 -13 -33 5
-56 -1 -56 -14 0 -8 -4 -15 -10 -15 -5 0 -10 6 -10 14 0 23 -85 30 -133 11
-13 -6 -16 -3 -11 9 4 12 0 16 -15 16 -12 0 -24 -7 -28 -15z m164 -37 c-3 -8
-6 -5 -6 6 -1 11 2 17 5 13 3 -3 4 -12 1 -19z"/>
<path d="M155 5841 c-8 -15 3 -31 21 -31 9 0 14 7 12 17 -4 20 -24 28 -33 14z"/>
<path d="M410 5700 c0 -22 2 -40 5 -40 3 0 15 10 28 23 l22 22 3 -22 c2 -13 8
-23 13 -23 5 0 9 10 10 23 l0 22 16 -22 c19 -27 53 -31 53 -5 1 16 1 16 14 0
7 -10 18 -18 25 -18 6 0 11 8 11 18 1 16 1 16 11 0 12 -21 45 -24 52 -5 4 10
6 10 6 0 2 -21 18 -15 26 10 7 22 8 22 12 1 3 -16 12 -21 38 -22 39 -2 43 4
18 24 -17 13 -17 13 0 14 9 0 17 4 17 9 0 5 -43 9 -95 9 -59 -1 -95 -5 -95
-12 0 -6 -5 -5 -12 2 -7 7 -38 12 -70 12 -32 0 -58 4 -58 10 0 6 -11 10 -25
10 -22 0 -25 -4 -25 -40z"/>
<path d="M800 5702 l0 -39 52 1 c41 1 53 5 59 21 7 19 8 19 8 -2 1 -35 21 -27
21 8 0 31 -1 31 -35 26 -26 -4 -35 -2 -35 9 0 19 -20 18 -36 -3 -13 -17 -13
-17 -14 0 0 36 -20 15 -20 -21z m60 -12 c0 -5 -2 -10 -4 -10 -3 0 -8 5 -11 10
-3 6 -1 10 4 10 6 0 11 -4 11 -10z"/>
<path d="M993 5723 c-13 -8 -23 -26 -23 -38 0 -22 4 -23 54 -23 46 1 55 4 60
21 7 29 -2 40 -30 34 -16 -3 -24 0 -24 9 0 18 -9 17 -37 -3z"/>
<path d="M1120 5701 c0 -34 3 -38 24 -38 17 0 26 6 29 21 4 20 4 20 6 -1 1
-23 21 -33 21 -12 0 8 4 8 13 2 19 -16 49 -11 55 9 6 24 22 23 22 -1 0 -18 8
-19 88 -19 48 1 93 5 100 11 8 6 12 6 12 -2 0 -20 19 -11 23 12 4 21 4 21 6 1
1 -19 7 -21 66 -22 65 -1 65 0 65 28 l0 28 -80 0 c-54 0 -80 -3 -80 -11 0 -8
-4 -7 -9 2 -5 8 -19 12 -35 9 -18 -4 -26 -1 -26 8 0 27 -20 14 -21 -13 -1 -18
-3 -21 -6 -10 -5 20 -63 21 -63 0 0 -7 -4 -13 -10 -13 -5 0 -10 6 -10 14 0 9
-15 15 -47 18 -27 2 -50 2 -53 -1 -10 -12 -70 -6 -70 6 0 7 -4 13 -10 13 -5 0
-10 -17 -10 -39z m130 -11 c0 -5 -2 -10 -4 -10 -3 0 -8 5 -11 10 -3 6 -1 10 4
10 6 0 11 -4 11 -10z"/>
<path d="M1702 5726 c-16 -8 -22 -18 -20 -36 3 -23 8 -25 55 -27 43 -1 53 2
58 18 9 27 -4 42 -31 36 -16 -3 -24 0 -24 9 0 16 -6 16 -38 0z"/>
<path d="M1830 5699 c0 -24 4 -38 10 -34 6 3 10 14 11 23 0 13 2 12 9 -4 8
-19 16 -21 88 -21 l79 0 -1 31 c-2 24 -6 30 -22 28 -60 -7 -148 -4 -152 6 -9
27 -22 9 -22 -29z m100 -3 c0 -3 -4 -8 -10 -11 -5 -3 -10 -1 -10 4 0 6 5 11
10 11 6 0 10 -2 10 -4z"/>
<path d="M156 5711 c-7 -11 18 -33 27 -24 4 3 7 12 7 20 0 15 -26 18 -34 4z"/>
<path d="M414 5606 c-8 -21 0 -79 11 -83 6 -2 10 18 10 47 0 48 -10 65 -21 36z"/>
<path d="M626 5613 c-4 -4 -22 -6 -41 -5 -30 2 -34 -1 -38 -25 l-4 -28 -2 28
c-2 39 -21 33 -21 -7 0 -19 5 -38 10 -41 6 -3 10 0 10 7 0 10 2 10 8 1 6 -9
15 -6 33 11 16 15 31 21 39 16 10 -6 9 -9 -1 -13 -10 -3 -11 -8 -3 -16 15 -16
44 -3 44 20 0 10 -4 19 -10 19 -5 0 -7 6 -4 14 6 15 -9 29 -20 19z"/>
<path d="M669 5571 c-4 -48 2 -63 16 -41 10 17 9 70 -2 81 -8 8 -12 -4 -14
-40z"/>
<path d="M447 5603 c-2 -5 -2 -14 -1 -20 1 -7 2 -23 3 -35 2 -23 2 -23 17 -3
11 14 18 16 21 8 9 -25 23 -12 23 22 0 35 -13 47 -24 23 -5 -10 -7 -10 -12 0
-6 13 -21 16 -27 5z"/>
<path d="M705 5551 c-3 -5 -1 -12 5 -16 5 -3 10 1 10 9 0 18 -6 21 -15 7z"/>
<path d="M415 5458 c-15 -37 -10 -55 11 -37 11 9 18 9 26 1 19 -19 38 -14 48
11 l9 22 0 -22 c1 -13 6 -23 11 -23 6 0 10 10 11 23 l0 22 9 -22 c9 -23 44
-27 58 -7 10 14 36 11 49 -6 11 -13 12 -13 13 3 0 9 4 17 9 17 5 0 11 -8 14
-17 3 -15 6 -14 15 7 10 24 11 24 11 3 1 -19 6 -21 49 -20 26 1 50 6 55 12 4
7 10 7 15 0 13 -18 62 -15 62 4 1 14 2 14 11 -1 13 -23 49 -24 49 -1 0 15 1
15 13 -2 13 -17 14 -17 21 6 l7 24 9 -22 c12 -29 46 -30 53 -1 3 12 4 25 1 30
-3 4 -57 7 -121 6 -83 -1 -118 2 -121 10 -6 18 -22 14 -22 -4 0 -13 -3 -14
-13 -5 -8 6 -17 8 -20 4 -4 -3 -32 -5 -62 -4 -33 1 -55 -2 -55 -8 0 -6 -9 -11
-20 -11 -13 0 -20 7 -20 20 0 11 -4 20 -10 20 -5 0 -10 -3 -10 -7 0 -5 -21 -9
-47 -11 -26 -1 -50 -7 -54 -14 -4 -7 -11 -3 -18 11 -16 30 -30 26 -46 -11z"/>
<path d="M157 5464 c-9 -10 2 -24 19 -24 8 0 14 7 14 15 0 15 -21 21 -33 9z"/>
<path d="M1065 5431 c-3 -5 -1 -12 5 -16 5 -3 10 1 10 9 0 18 -6 21 -15 7z"/>
<path d="M914 5360 c-6 -6 -24 -12 -39 -14 -17 -2 -31 -11 -35 -22 -6 -17 -7
-17 -12 2 -5 18 -13 20 -89 20 l-84 -1 -3 -30 c-3 -30 -3 -30 48 -29 27 1 50
-2 50 -7 0 -13 47 -11 55 1 4 6 12 10 18 9 42 -5 65 3 72 24 l8 22 4 -22 c2
-12 12 -22 21 -22 9 0 38 -1 65 -2 26 -1 50 1 54 4 3 4 12 2 18 -3 14 -11 75
-2 75 11 0 5 -4 9 -10 9 -5 0 -10 11 -10 23 0 35 -10 39 -41 17 -19 -14 -30
-17 -34 -9 -4 6 -15 9 -25 6 -11 -3 -21 2 -24 10 -5 12 -9 12 -28 -1 -28 -20
-36 -20 -40 0 -2 11 -6 12 -14 4z"/>
<path d="M412 5323 l3 -38 53 1 c28 0 52 -4 52 -9 0 -11 80 -1 93 12 4 4 5 20
2 34 -6 21 -12 25 -43 25 -20 0 -43 -5 -49 -10 -9 -7 -13 -7 -13 1 0 19 -39
12 -52 -9 -17 -27 -28 -25 -28 5 0 14 -5 25 -11 25 -6 0 -9 -16 -7 -37z"/>
<path d="M155 5341 c-8 -15 3 -31 21 -31 9 0 14 7 12 17 -4 20 -24 28 -33 14z"/>
<path d="M410 5201 l0 -39 115 0 c110 0 115 1 116 22 0 21 0 21 9 0 7 -18 17
-20 99 -21 50 -1 93 2 96 6 2 4 2 17 -1 28 -5 19 -13 21 -114 21 -103 -1 -109
-2 -113 -22 -4 -21 -4 -21 -6 1 -1 18 -7 21 -46 21 -25 0 -48 -4 -51 -10 -4
-7 -9 -6 -14 2 -11 18 -41 4 -34 -15 4 -9 0 -15 -10 -15 -13 0 -14 5 -6 26 13
34 13 34 -15 34 -22 0 -25 -4 -25 -39z m155 -11 c-3 -5 -13 -10 -21 -10 -8 0
-14 5 -14 10 0 6 9 10 21 10 11 0 17 -4 14 -10z m215 6 c0 -3 -4 -8 -10 -11
-5 -3 -10 -1 -10 4 0 6 5 11 10 11 6 0 10 -2 10 -4z"/>
<path d="M910 5231 c0 -5 -9 -11 -21 -14 -15 -4 -20 -12 -17 -29 3 -21 9 -23
61 -25 l57 -3 0 31 c0 29 -2 31 -30 27 -20 -3 -30 0 -30 9 0 7 -4 13 -10 13
-5 0 -10 -4 -10 -9z m0 -41 c0 -5 -5 -10 -11 -10 -5 0 -7 5 -4 10 3 6 8 10 11
10 2 0 4 -4 4 -10z"/>
<path d="M1288 5229 c-2 -5 -18 -11 -36 -11 -20 -1 -32 -6 -32 -15 0 -7 -4
-13 -10 -13 -5 0 -10 7 -10 15 0 22 -127 20 -133 -3 -4 -15 -5 -15 -6 1 -1 10
-9 17 -21 17 -15 0 -20 -7 -20 -29 0 -28 2 -29 46 -29 26 0 51 -5 57 -11 15
-15 47 -14 52 2 3 7 21 11 46 10 33 -1 42 3 49 20 9 22 9 22 15 2 6 -19 15
-21 106 -22 l99 -1 0 39 c0 37 -14 53 -22 27 -3 -8 -21 -12 -46 -11 -31 1 -42
-2 -45 -15 -3 -10 -5 -5 -6 11 -1 24 -21 41 -21 18 0 -5 -9 -11 -20 -14 -13
-3 -20 0 -20 9 0 16 -17 19 -22 3z m62 -39 c0 -5 -2 -10 -4 -10 -3 0 -8 5 -11
10 -3 6 -1 10 4 10 6 0 11 -4 11 -10z m120 0 c0 -5 -2 -10 -4 -10 -3 0 -8 5
-11 10 -3 6 -1 10 4 10 6 0 11 -4 11 -10z"/>
<path d="M157 5214 c-9 -10 2 -24 19 -24 8 0 14 7 14 15 0 15 -21 21 -33 9z"/>
<path d="M1500 5170 c0 -5 5 -10 10 -10 6 0 10 5 10 10 0 6 -4 10 -10 10 -5 0
-10 -4 -10 -10z"/>
<path d="M4063 5620 c5 -40 14 -48 30 -26 13 17 14 17 30 1 14 -14 20 -15 32
-5 11 9 19 9 28 2 6 -6 63 -10 125 -11 62 0 122 -3 132 -6 27 -9 37 19 15 42
-11 11 -36 17 -74 19 -31 1 -56 3 -56 4 0 0 -21 3 -47 6 -27 2 -48 1 -48 -4 0
-10 -38 -8 -64 3 -14 6 -23 3 -33 -11 -13 -18 -15 -18 -24 -1 -6 9 -19 17 -29
17 -16 0 -19 -6 -17 -30z"/>
<path d="M4722 5641 c-7 -4 -62 -7 -122 -7 -104 2 -109 1 -114 -20 -3 -13 -3
-29 0 -37 9 -24 -13 -30 -98 -28 l-79 2 3 -27 3 -26 285 -1 285 0 0 24 c0 20
-5 24 -27 24 -16 -1 -28 2 -28 6 0 4 -19 5 -42 3 -24 -3 -50 -5 -58 -5 -8 1
-63 1 -122 2 -60 0 -108 4 -108 9 0 13 36 31 44 22 4 -3 11 0 16 8 6 9 10 10
10 3 0 -17 360 -18 360 0 0 8 3 9 8 1 4 -6 37 -12 75 -13 66 -2 67 -2 67 23 0
30 9 28 -110 30 -53 1 -100 5 -106 9 -6 3 -14 3 -18 0 -11 -11 -76 -13 -76 -3
0 12 -30 13 -48 1z"/>
<path d="M5094 5608 c3 -13 6 -26 6 -30 0 -15 28 -8 34 8 12 31 6 44 -20 44
-22 0 -25 -3 -20 -22z"/>
<path d="M7567 5673 c-11 -10 -8 -51 3 -58 22 -14 91 -12 106 2 8 8 14 10 14
4 0 -18 18 -12 23 7 4 16 5 16 6 0 0 -10 6 -18 12 -18 14 0 7 52 -7 57 -7 2
-19 -3 -28 -12 -9 -9 -16 -12 -16 -7 0 24 -35 22 -57 -3 -25 -26 -43 -26 -43
1 0 8 9 14 20 14 11 0 20 5 20 10 0 11 -43 14 -53 3z m93 -39 c0 -8 -5 -12
-10 -9 -6 4 -8 11 -5 16 9 14 15 11 15 -7z"/>
<path d="M7890 5664 c0 -9 -5 -12 -12 -8 -7 4 -38 8 -70 9 -53 2 -58 0 -58
-20 0 -45 51 -54 65 -12 l8 22 4 -22 c5 -26 31 -38 49 -22 7 6 18 8 24 4 6 -4
10 7 10 29 0 20 -4 36 -10 36 -5 0 -10 -7 -10 -16z m-100 -30 c0 -8 -4 -12
-10 -9 -5 3 -10 10 -10 16 0 5 5 9 10 9 6 0 10 -7 10 -16z m75 6 c3 -5 1 -10
-4 -10 -6 0 -11 5 -11 10 0 6 2 10 4 10 3 0 8 -4 11 -10z"/>
<path d="M7962 5664 c-38 -26 -20 -70 23 -54 15 6 27 4 34 -3 10 -9 16 -8 27
7 24 33 18 49 -16 44 -20 -3 -30 0 -30 9 0 17 -11 16 -38 -3z"/>
<path d="M8100 5654 c-15 -37 -13 -41 18 -42 15 0 59 -1 97 -2 93 -3 95 -3 96
18 0 13 3 11 9 -6 8 -19 13 -21 29 -12 12 6 22 6 25 1 12 -18 46 1 46 25 0 32
-26 41 -51 18 -15 -14 -20 -15 -17 -4 2 9 -3 14 -12 11 -8 -2 -19 -3 -25 -2
-17 1 -79 3 -92 2 -7 -1 -13 -8 -13 -16 0 -8 -7 -15 -15 -15 -8 0 -15 5 -15
10 0 6 5 10 10 10 6 0 10 5 10 10 0 15 -16 12 -34 -5 -13 -14 -16 -13 -26 5
-15 27 -29 25 -40 -6z m149 -25 c-16 -10 -23 -4 -14 10 3 6 11 8 17 5 6 -4 5
-9 -3 -15z m151 11 c0 -5 -5 -10 -11 -10 -5 0 -7 5 -4 10 3 6 8 10 11 10 2 0
4 -4 4 -10z"/>
<path d="M8460 5645 c0 -34 1 -34 20 -18 14 13 16 19 7 25 -9 6 -8 10 3 18 12
8 11 10 -7 10 -20 0 -23 -5 -23 -35z"/>
<path d="M8510 5645 c0 -35 19 -51 21 -17 0 13 3 11 9 -6 8 -18 14 -21 27 -14
10 5 27 8 38 5 35 -7 80 -7 98 0 22 8 22 34 0 45 -19 10 -75 8 -92 -3 -6 -3
-11 1 -11 9 0 9 -4 16 -10 16 -5 0 -9 -3 -9 -7 1 -5 1 -15 0 -23 -1 -12 -4
-11 -12 3 -8 14 -14 16 -25 6 -11 -9 -14 -8 -14 5 0 9 -4 16 -10 16 -5 0 -10
-16 -10 -35z m150 -11 c0 -2 -7 -4 -15 -4 -8 0 -15 4 -15 10 0 5 7 7 15 4 8
-4 15 -8 15 -10z m35 6 c3 -5 1 -10 -4 -10 -6 0 -11 5 -11 10 0 6 2 10 4 10 3
0 8 -4 11 -10z"/>
<path d="M7310 5645 c0 -8 7 -15 15 -15 8 0 15 7 15 15 0 8 -7 15 -15 15 -8 0
-15 -7 -15 -15z"/>
<path d="M7567 5554 c-11 -11 -9 -62 3 -69 6 -3 10 2 10 11 0 16 1 16 16 -2
11 -13 17 -15 20 -6 3 6 11 9 17 5 7 -4 33 -8 59 -9 39 0 48 3 54 20 6 21 7
21 11 -1 6 -33 25 -28 21 5 -3 26 -5 27 -61 28 -37 0 -61 5 -66 13 -6 10 -12
8 -24 -10 l-16 -22 -18 22 c-10 12 -22 19 -26 15z m133 -44 c0 -5 -4 -10 -10
-10 -5 0 -10 5 -10 10 0 6 5 10 10 10 6 0 10 -4 10 -10z"/>
<path d="M8104 5536 c-6 -26 2 -66 14 -66 4 0 7 20 8 45 1 48 -12 60 -22 21z"/>
<path d="M8147 5553 c-4 -3 -7 -21 -7 -40 0 -28 3 -33 24 -33 13 0 26 -5 28
-12 2 -6 10 -8 16 -4 15 9 16 82 2 91 -6 4 -10 -8 -10 -28 0 -31 -3 -34 -21
-30 -14 4 -17 8 -9 13 7 4 9 13 6 19 -4 6 -2 11 4 11 6 0 8 5 5 10 -7 11 -28
13 -38 3z"/>
<path d="M8290 5546 c-20 -26 -8 -61 23 -64 15 -2 27 1 27 7 0 6 -9 11 -21 11
-14 0 -19 5 -17 17 5 25 38 30 38 6 0 -24 19 -43 42 -43 25 0 23 16 -3 23 -29
8 -19 31 14 35 23 3 27 0 27 -22 0 -14 5 -28 10 -31 6 -4 10 7 10 24 0 40 18
40 33 1 11 -30 37 -42 37 -17 0 7 7 22 15 33 15 18 15 17 13 -18 -3 -44 8 -61
17 -25 9 33 3 70 -12 74 -6 2 -21 -5 -32 -16 -20 -20 -21 -20 -31 -1 -9 16
-20 20 -58 19 -26 -1 -55 -6 -64 -10 -10 -6 -19 -5 -23 1 -9 14 -31 12 -45 -4z"/>
<path d="M7790 5512 c0 -37 14 -35 23 3 4 15 5 14 6 -7 1 -25 4 -27 44 -25 38
2 42 5 42 27 0 20 -5 25 -25 27 -14 0 -27 2 -30 3 -3 1 -17 4 -32 6 -26 3 -28
0 -28 -34z m100 -2 c0 -5 -4 -10 -10 -10 -5 0 -10 5 -10 10 0 6 5 10 10 10 6
0 10 -4 10 -10z"/>
<path d="M7310 5525 c0 -8 7 -15 15 -15 8 0 15 7 15 15 0 8 -7 15 -15 15 -8 0
-15 -7 -15 -15z"/>
<path d="M7920 5508 c0 -30 19 -30 21 0 0 13 3 12 11 -5 12 -25 43 -31 51 -10
4 9 8 9 15 -1 14 -21 47 -10 50 16 4 26 -22 40 -42 23 -8 -7 -17 -8 -20 -3 -3
5 -24 9 -46 9 -38 0 -40 -1 -40 -29z m130 2 c0 -5 -5 -10 -11 -10 -5 0 -7 5
-4 10 3 6 8 10 11 10 2 0 4 -4 4 -10z"/>
<path d="M8230 5490 c0 -5 5 -10 10 -10 6 0 10 5 10 10 0 6 -4 10 -10 10 -5 0
-10 -4 -10 -10z"/>
<path d="M7740 5402 l0 -40 49 1 c41 0 51 4 57 21 l7 21 4 -21 c4 -19 11 -21
79 -23 l75 -2 -3 28 c-2 23 -8 28 -28 27 -14 -1 -28 4 -32 10 -5 8 -8 7 -8 -2
0 -9 -7 -11 -19 -7 -11 3 -22 1 -26 -5 -4 -7 -11 -8 -18 -2 -19 15 -47 10 -47
-7 -1 -14 -2 -14 -14 2 -18 23 -35 21 -46 -5 -8 -22 -9 -22 -9 4 -1 44 -21 44
-21 0z m195 -12 c3 -5 -3 -10 -14 -10 -12 0 -21 5 -21 10 0 6 6 10 14 10 8 0
18 -4 21 -10z"/>
<path d="M7560 5420 c0 -19 24 -60 35 -60 6 0 16 12 22 28 l11 27 1 -26 c1
-37 42 -57 76 -39 19 10 25 21 25 47 0 18 -4 33 -10 33 -5 0 -10 -4 -10 -9 0
-5 -9 -7 -20 -4 -14 4 -22 -1 -29 -18 -10 -24 -10 -24 -10 4 -1 20 -6 27 -21
27 -10 0 -23 -8 -29 -17 -9 -17 -10 -17 -16 0 -8 18 -25 24 -25 7z"/>
<path d="M7315 5410 c-7 -12 2 -30 16 -30 12 0 12 27 0 35 -5 3 -12 1 -16 -5z"/>
<path d="M7582 5297 c-6 -6 -14 -26 -18 -42 -7 -27 -6 -29 10 -16 13 11 20 11
28 3 7 -7 20 -12 30 -12 14 0 18 8 18 40 0 22 -4 40 -10 40 -5 0 -10 -12 -10
-27 l-1 -28 -15 28 c-17 31 -18 31 -32 14z"/>
<path d="M7310 5275 c0 -8 7 -15 15 -15 8 0 15 7 15 15 0 8 -7 15 -15 15 -8 0
-15 -7 -15 -15z"/>
<path d="M7660 5260 c0 -22 5 -30 18 -30 10 0 23 5 30 12 9 9 12 9 13 -2 0 -8
4 -5 9 8 5 12 14 22 19 22 5 0 11 -10 14 -22 l4 -23 10 24 10 25 7 -25 8 -24
8 25 c5 16 8 19 9 8 2 -31 21 -30 21 1 l0 31 -60 0 c-40 0 -60 -4 -60 -12 0
-9 -3 -9 -12 0 -7 7 -20 12 -30 12 -13 0 -18 -8 -18 -30z"/>
<path d="M7857 5269 c-8 -29 -1 -39 24 -39 16 0 20 6 17 27 -4 35 -33 43 -41
12z"/>
<path d="M7910 5260 c0 -19 5 -30 14 -30 20 0 26 12 19 38 -8 33 -33 27 -33
-8z"/>
<path d="M7897 5176 c-8 -21 -47 -27 -48 -8 0 11 -2 12 -6 5 -2 -7 -20 -13
-38 -13 -25 0 -34 -5 -40 -22 l-8 -23 -4 24 c-4 21 -9 23 -48 19 -25 -3 -48
-1 -54 5 -8 8 -14 8 -23 -1 -7 -7 -19 -12 -27 -12 -14 0 -14 2 -1 10 12 8 12
10 -3 16 -30 11 -44 -12 -21 -37 10 -13 14 -19 7 -16 -6 4 -14 3 -18 -3 -9
-15 23 -24 38 -11 10 8 17 7 26 -2 10 -9 15 -8 27 7 14 19 14 19 14 -2 0 -16
6 -22 23 -22 13 0 27 3 31 7 4 4 19 8 34 9 47 3 50 4 56 27 6 21 7 21 21 -8 7
-16 14 -24 14 -17 1 9 7 10 19 4 9 -4 35 -8 57 -8 34 1 40 4 43 25 5 31 -19
46 -35 24 -12 -15 -13 -15 -13 4 0 26 -16 39 -23 19z m3 -40 c0 -3 -4 -8 -10
-11 -5 -3 -10 -1 -10 4 0 6 5 11 10 11 6 0 10 -2 10 -4z"/>
<path d="M8003 5166 c-26 -12 -31 -53 -8 -62 21 -8 40 10 43 40 2 30 -6 35
-35 22z"/>
<path d="M8230 5170 c0 -5 -9 -10 -20 -10 -15 0 -20 -7 -20 -25 0 -14 5 -25
10 -25 6 0 10 9 10 20 0 11 5 20 10 20 6 0 10 -9 10 -20 0 -11 5 -20 10 -20 6
0 10 16 10 35 0 19 -4 35 -10 35 -5 0 -10 -4 -10 -10z"/>
<path d="M8550 5145 c0 -19 5 -35 10 -35 6 0 10 16 10 35 0 19 -4 35 -10 35
-5 0 -10 -16 -10 -35z"/>
<path d="M7315 5160 c-8 -13 4 -32 16 -25 12 8 12 35 0 35 -6 0 -13 -4 -16
-10z"/>
<path d="M8146 5162 c-4 -3 -22 -5 -41 -4 -34 3 -35 1 -35 -33 0 -38 5 -42 34
-20 14 11 23 12 33 4 19 -17 43 -3 43 25 0 23 -22 41 -34 28z m-36 -26 c0 -3
-4 -8 -10 -11 -5 -3 -10 -1 -10 4 0 6 5 11 10 11 6 0 10 -2 10 -4z"/>
<path d="M8357 5152 c-11 -10 -17 -12 -17 -4 0 7 -15 12 -40 12 -36 0 -40 -2
-40 -25 0 -29 16 -34 23 -7 4 16 5 16 6 0 1 -22 21 -24 21 -3 0 8 5 15 10 15
6 0 10 -7 10 -16 0 -10 6 -14 14 -11 7 3 19 0 25 -6 9 -9 16 -6 30 12 l18 24
8 -24 c7 -24 7 -24 15 6 6 24 8 26 9 8 1 -28 17 -30 24 -3 7 27 24 25 23 -2
-1 -35 38 -31 42 3 3 26 1 27 -60 31 -35 3 -64 1 -66 -3 -2 -5 -12 -5 -21 1
-13 6 -22 4 -34 -8z"/>
<path d="M7572 5048 c-16 -16 -15 -45 1 -55 18 -11 96 -12 103 -1 4 6 10 5 15
-3 6 -10 10 -7 18 11 6 17 10 19 10 8 2 -31 21 -30 21 1 0 26 -4 31 -24 31
-13 0 -27 -6 -29 -12 -4 -10 -6 -10 -6 0 -2 21 -52 14 -58 -8 -3 -12 -12 -20
-21 -18 -24 5 -26 29 -3 35 12 3 21 9 21 14 0 13 -34 11 -48 -3z m88 -38 c0
-5 -2 -10 -4 -10 -3 0 -8 5 -11 10 -3 6 -1 10 4 10 6 0 11 -4 11 -10z"/>
<path d="M7895 5048 c-5 -13 -76 -15 -122 -3 -19 4 -23 1 -23 -17 0 -13 4 -28
8 -34 11 -17 44 -12 50 8 6 24 18 23 25 -2 5 -21 47 -29 47 -9 0 8 5 8 15 -1
13 -11 15 -7 15 29 0 41 -6 52 -15 29z m-109 -45 c-10 -10 -19 5 -10 18 6 11
8 11 12 0 2 -7 1 -15 -2 -18z m84 13 c0 -3 -4 -8 -10 -11 -5 -3 -10 -1 -10 4
0 6 5 11 10 11 6 0 10 -2 10 -4z"/>
<path d="M8199 5038 c0 -13 -3 -17 -6 -10 -2 7 -22 12 -44 12 -37 0 -39 -2
-39 -30 0 -36 7 -38 20 -7 7 17 9 18 9 5 1 -23 21 -24 21 -1 0 9 3 13 8 9 4
-4 7 -13 7 -19 0 -7 20 -12 53 -13 l52 -1 0 41 c-1 31 -3 37 -10 24 -10 -16
-50 -14 -50 3 0 20 -20 7 -21 -13z"/>
<path d="M8510 5019 c0 -36 2 -40 15 -29 10 9 15 9 15 1 0 -6 9 -11 20 -11 11
0 20 7 20 15 0 8 5 15 10 15 6 0 9 -5 8 -12 -2 -6 5 -14 15 -16 13 -3 17 3 17
27 0 29 -1 30 -50 27 -35 -1 -50 2 -50 11 0 7 -4 13 -10 13 -5 0 -10 -19 -10
-41z"/>
<path d="M8707 5053 c-11 -10 -8 -61 3 -68 6 -3 10 1 10 9 0 9 7 16 15 16 8 0
15 -7 15 -16 0 -24 20 -6 20 19 1 20 2 20 16 -5 8 -16 17 -28 19 -28 7 0 35
58 35 72 -1 7 -9 3 -20 -10 -18 -22 -19 -22 -25 -3 -7 23 -42 24 -50 1 -6 -13
-8 -13 -19 2 -7 10 -16 15 -19 11z"/>
<path d="M8851 5029 c-15 -45 -14 -51 9 -37 17 11 22 10 29 -1 6 -9 10 -10 16
-2 5 9 10 9 21 0 7 -6 22 -8 31 -4 16 6 16 8 -4 16 -28 10 -30 29 -3 36 27 7
25 25 -2 21 -12 -2 -28 -13 -34 -25 l-11 -23 -11 25 c-15 33 -28 31 -41 -6z"/>
<path d="M8412 5019 c3 -32 5 -34 43 -34 36 0 40 3 40 25 0 18 -6 26 -23 28
-12 2 -22 0 -21 -5 3 -18 -2 -33 -11 -33 -5 0 -9 10 -7 21 1 12 -4 24 -11 26
-10 4 -13 -4 -10 -28z"/>
<path d="M7310 5025 c0 -8 7 -15 15 -15 8 0 15 7 15 15 0 8 -7 15 -15 15 -8 0
-15 -7 -15 -15z"/>
<path d="M7924 5025 c-9 -23 3 -45 26 -45 16 0 20 7 20 30 0 23 -4 30 -20 30
-11 0 -23 -7 -26 -15z"/>
<path d="M7982 5010 c1 -23 5 -30 17 -28 23 5 24 58 0 58 -13 0 -17 -8 -17
-30z"/>
<path d="M8050 5010 c0 -27 3 -31 23 -28 16 2 22 10 22 28 0 18 -6 26 -22 28
-20 3 -23 -1 -23 -28z"/>
<path d="M8294 5025 c-9 -23 4 -47 23 -43 11 2 19 14 21 31 3 22 -1 27 -18 27
-11 0 -23 -7 -26 -15z"/>
<path d="M8350 5015 c0 -28 20 -35 21 -7 0 13 2 12 9 -5 13 -31 20 -29 20 7 0
25 -4 30 -25 30 -20 0 -25 -5 -25 -25z"/>
<path d="M4277 5143 c-4 -3 -7 -16 -7 -28 0 -19 6 -21 71 -22 40 -1 83 -7 96
-14 18 -10 26 -10 35 -1 7 7 27 12 45 12 20 0 33 5 33 13 0 9 2 9 8 -1 6 -8
33 -12 85 -11 l77 1 0 29 c0 32 -11 37 -30 14 -9 -10 -17 -12 -23 -6 -5 5 -15
7 -22 5 -7 -3 -16 0 -20 6 -5 8 -11 8 -21 -1 -10 -8 -18 -9 -27 0 -8 6 -17 7
-21 3 -4 -4 -46 -9 -92 -12 -63 -4 -84 -2 -84 8 0 17 -27 15 -34 -3 -3 -8 -12
-15 -21 -15 -8 0 -15 7 -15 15 0 15 -21 21 -33 8z"/>
<path d="M4740 5120 c0 -16 5 -30 10 -30 6 0 10 6 10 13 0 9 2 9 8 -1 10 -15
139 -19 154 -4 19 19 -8 39 -47 36 -20 -2 -35 1 -35 8 0 7 -4 7 -13 0 -8 -7
-18 -7 -27 -2 -8 6 -25 10 -37 10 -19 0 -23 -6 -23 -30z"/>
<path d="M4262 4665 c1 -14 5 -25 8 -25 18 1 50 14 50 21 0 5 -7 6 -15 3 -9
-4 -15 0 -15 10 0 9 -7 16 -15 16 -10 0 -14 -9 -13 -25z"/>
<path d="M4330 4665 c0 -26 14 -33 25 -15 4 7 11 8 18 2 16 -13 67 -12 67 0 0
6 7 5 15 -2 13 -11 15 -8 15 14 0 23 -2 25 -24 16 -15 -5 -37 -5 -58 1 -49 14
-58 11 -58 -16z"/>
<path d="M4580 4680 c-14 -4 -42 -5 -62 -2 -35 4 -38 3 -38 -19 0 -17 3 -20 9
-10 7 11 9 11 14 0 4 -12 7 -11 16 1 7 10 11 11 11 3 0 -8 13 -13 29 -13 16 0
32 6 34 13 4 10 6 10 6 0 1 -7 10 -13 20 -13 11 0 22 6 25 13 5 10 7 10 12 0
6 -13 36 -18 47 -7 15 16 -7 33 -43 32 -21 0 -42 2 -47 4 -4 3 -19 2 -33 -2z"/>
<path d="M4725 4677 c-9 -22 -2 -30 33 -35 14 -2 32 -8 40 -14 9 -8 16 -8 24
0 7 7 36 12 65 12 41 0 53 3 53 15 0 25 -31 31 -48 9 -14 -18 -14 -18 -8 0 5
15 2 17 -14 13 -11 -3 -20 -1 -20 3 0 5 -13 5 -29 0 -18 -5 -33 -4 -40 3 -7 7
-14 7 -25 -2 -11 -9 -15 -9 -19 1 -3 9 -7 8 -12 -5z"/>
<path d="M4310 3782 c0 -37 7 -43 36 -30 15 7 28 8 36 1 14 -11 57 -11 75 0 5
4 13 4 16 1 8 -8 295 -9 303 -1 3 3 3 14 0 25 -6 17 -16 19 -92 18 -47 -1 -88
2 -90 6 -3 4 -15 4 -27 -1 -22 -8 -70 -7 -139 3 -29 5 -39 2 -47 -11 -10 -17
-12 -17 -25 0 -21 27 -46 22 -46 -11z"/>
<path d="M4808 3799 c-19 -11 -25 -48 -8 -50 6 0 24 -1 40 -1 50 0 52 1 48 25
-2 16 -9 22 -25 21 -13 0 -23 3 -23 8 0 11 -11 10 -32 -3z"/>
<path d="M4462 3702 c-7 -19 12 -48 30 -43 7 2 18 3 23 3 6 -1 39 -1 75 -2 36
-1 68 -6 71 -12 4 -7 12 -7 25 0 11 6 27 13 37 16 18 6 21 15 9 32 -9 13 -62
28 -62 17 0 -10 -57 -8 -82 2 -10 4 -18 3 -18 -2 0 -5 -22 -7 -51 -3 -40 5
-52 3 -57 -8z"/>
<path d="M4574 3415 c-1 -14 3 -25 10 -25 6 0 12 11 12 25 1 14 -3 25 -10 25
-6 0 -12 -11 -12 -25z"/>
<path d="M4377 3344 c-14 -15 -6 -34 14 -34 14 0 19 5 17 17 -3 18 -20 27 -31
17z"/>
<path d="M4470 3342 c0 -5 -10 -8 -22 -8 -14 1 -24 -6 -26 -16 -2 -13 3 -18
17 -18 12 0 21 4 21 10 0 5 6 8 13 6 50 -16 63 -15 63 4 0 14 -5 18 -17 15
-10 -3 -20 -1 -24 5 -7 12 -25 13 -25 2z"/>
<path d="M4560 3329 c0 -5 0 -12 0 -16 0 -4 12 -8 28 -9 20 -1 28 3 28 16 0
12 -9 17 -28 18 -15 0 -28 -4 -28 -9z"/>
<path d="M4636 3324 c-5 -14 36 -24 65 -17 10 3 19 10 19 17 0 6 5 4 10 -4 8
-13 10 -13 10 1 0 13 -10 16 -50 16 -28 -1 -51 -6 -54 -13z"/>
<path d="M4755 3330 c-11 -17 5 -32 21 -19 8 6 14 15 14 20 0 12 -27 11 -35
-1z"/>
<path d="M4800 3326 c0 -17 14 -29 23 -20 8 8 -3 34 -14 34 -5 0 -9 -6 -9 -14z"/>
<path d="M4648 3263 c7 -3 16 -2 19 1 4 3 -2 6 -13 5 -11 0 -14 -3 -6 -6z"/>
<path d="M4575 3085 c0 -14 6 -25 14 -25 8 0 11 6 7 16 -3 9 -6 20 -6 25 0 5
-3 9 -7 9 -5 0 -8 -11 -8 -25z"/>
<path d="M7556 6244 c-4 -10 -12 -14 -22 -10 -9 4 -22 2 -29 -4 -9 -8 -14 -6
-19 5 -3 8 -17 15 -31 15 -23 0 -25 -4 -25 -40 0 -22 5 -40 10 -40 6 0 10 8
10 18 0 14 2 15 10 2 7 -12 33 -15 115 -16 58 -1 107 2 110 6 3 5 1 20 -5 35
-8 21 -13 24 -28 16 -13 -7 -22 -7 -30 1 -8 8 -15 8 -27 -2 -12 -10 -15 -10
-15 3 0 22 -17 30 -24 11z"/>
<path d="M8230 6240 c0 -18 -3 -19 -20 -10 -17 9 -22 7 -30 -12 -6 -16 -9 -18
-9 -6 -1 22 -20 33 -33 20 -7 -7 -17 -8 -28 -2 -9 5 -22 5 -30 0 -8 -5 -22 -4
-33 2 -13 7 -22 7 -30 -1 -6 -6 -16 -7 -28 -1 -20 11 -49 3 -49 -14 0 -6 -4
-5 -9 3 -9 13 -27 15 -108 12 -28 -1 -33 -5 -33 -25 0 -34 18 -43 29 -14 l8
23 8 -24 c6 -20 12 -22 56 -19 33 2 50 -1 54 -10 4 -10 9 -10 27 1 13 8 43 13
66 12 36 -1 45 2 52 19 l9 21 0 -21 c1 -19 7 -21 106 -21 l105 -1 0 39 c0 38
-15 54 -22 23 -2 -13 -6 -12 -25 5 -28 26 -33 26 -33 1z"/>
<path d="M8398 6238 c-24 -17 -28 -17 -28 -4 0 24 -18 19 -23 -6 l-4 -23 -2
23 c-2 39 -21 24 -21 -18 0 -38 19 -59 21 -22 0 14 1 15 7 1 6 -13 31 -15 154
-16 82 -1 150 2 153 7 3 5 1 20 -5 35 -8 21 -13 24 -28 16 -13 -7 -22 -7 -30
1 -8 8 -15 8 -25 -1 -12 -9 -16 -7 -21 11 -4 14 -9 19 -13 12 -15 -22 -49 -34
-61 -22 -8 8 -15 8 -26 -1 -12 -10 -15 -9 -18 8 -3 20 -3 20 -30 -1z"/>
<path d="M7175 6230 c-8 -14 3 -30 21 -30 8 0 14 9 14 20 0 21 -24 28 -35 10z"/>
<path d="M7716 6196 c10 -49 21 -52 38 -11 9 21 16 38 16 40 0 1 -14 2 -30 2
-29 0 -30 -2 -24 -31z"/>
<path d="M8400 6120 c-8 -15 -15 -18 -24 -11 -12 10 -61 9 -72 -2 -4 -3 -15
-2 -25 3 -13 7 -22 6 -34 -6 -25 -25 -14 -48 25 -54 46 -7 68 -2 73 19 4 14 5
14 6 -1 1 -16 27 -25 56 -18 6 1 60 2 121 2 107 -1 112 0 119 21 7 21 7 21 12
2 7 -28 17 -32 66 -26 33 5 42 10 43 26 1 31 -15 46 -36 35 -11 -6 -21 -6 -24
-2 -3 5 -26 6 -51 2 -25 -4 -48 -3 -51 2 -3 4 -14 3 -25 -2 -15 -9 -19 -7 -19
5 0 19 -4 19 -40 0 -17 -9 -31 -11 -35 -5 -4 6 -15 6 -30 0 -19 -7 -25 -6 -25
5 0 24 -18 27 -30 5z"/>
<path d="M7430 6090 c0 -22 5 -40 10 -40 6 0 10 4 10 9 0 5 9 11 20 14 13 3
20 0 20 -9 0 -24 20 -16 21 9 l0 22 11 -22 c9 -19 18 -22 72 -21 33 1 66 0 71
-2 6 -1 40 -2 78 -1 57 1 67 4 67 19 1 16 1 16 11 0 5 -10 14 -18 19 -18 5 0
11 8 13 18 4 15 5 15 6 0 1 -12 9 -16 29 -14 15 1 33 -2 40 -7 8 -6 17 -5 25
2 8 6 17 7 21 3 4 -4 14 2 22 12 11 15 14 16 14 5 0 -12 13 -16 57 -17 70 -1
91 18 57 52 -11 12 -20 13 -34 6 -13 -7 -21 -7 -25 0 -6 9 -83 5 -93 -5 -3 -3
-11 0 -19 6 -10 9 -17 8 -28 -1 -12 -10 -15 -10 -15 4 0 28 -20 17 -21 -11 -1
-17 -3 -21 -6 -10 -4 16 -38 23 -80 18 -7 -1 -13 3 -13 9 0 15 -43 12 -65 -4
-14 -10 -25 -11 -38 -4 -12 6 -23 6 -31 -1 -9 -7 -16 -7 -24 1 -8 8 -15 8 -25
0 -8 -7 -17 -9 -21 -5 -3 4 -26 6 -50 4 -25 -1 -47 3 -51 9 -3 5 -17 10 -31
10 -21 0 -24 -4 -24 -40z m210 -4 c0 -3 -4 -8 -10 -11 -5 -3 -10 -1 -10 4 0 6
5 11 10 11 6 0 10 -2 10 -4z"/>
<path d="M7175 6100 c-8 -14 3 -30 21 -30 8 0 14 9 14 20 0 21 -24 28 -35 10z"/>
<path d="M8156 6092 c3 -10 7 -26 9 -37 3 -33 27 -23 41 17 l12 36 -35 0 c-28
0 -33 -3 -27 -16z"/>
<path d="M7437 6003 c-9 -8 -9 -83 0 -83 3 0 15 7 25 16 16 16 18 16 24 0 9
-23 24 -20 24 6 l0 22 16 -23 c12 -16 23 -22 40 -18 13 2 22 -1 21 -6 -3 -17
33 -20 59 -6 13 7 24 21 24 31 0 10 5 18 10 18 6 0 9 -3 9 -7 -4 -27 4 -33 41
-31 31 1 40 6 43 22 l4 21 2 -21 c1 -18 7 -21 54 -20 55 1 57 2 57 40 0 23 -3
24 -70 25 -60 0 -70 -2 -70 -17 -1 -16 -1 -16 -11 0 -9 16 -25 18 -130 16 -79
-1 -124 3 -131 10 -13 13 -31 15 -41 5z"/>
<path d="M7942 5992 c-16 -13 -23 -26 -20 -43 3 -22 8 -24 61 -27 l58 -3 -3
33 c-3 29 -7 33 -30 33 -16 -1 -28 5 -28 12 0 18 -11 16 -38 -5z"/>
<path d="M8156 5995 c-11 -8 -30 -12 -46 -8 -22 4 -31 0 -40 -17 -24 -44 -7
-48 230 -47 213 0 219 1 223 21 4 20 4 20 6 -1 0 -13 8 -23 16 -23 9 0 15 9
15 23 0 35 -15 50 -44 45 -18 -4 -26 -1 -26 8 0 19 -29 18 -36 -1 -4 -8 -10
-15 -15 -15 -5 0 -9 7 -9 15 0 8 -4 15 -10 15 -5 0 -10 -4 -10 -10 0 -5 -9
-10 -19 -10 -11 0 -23 -5 -26 -10 -5 -7 -11 -8 -19 -1 -6 5 -36 9 -65 7 -43
-1 -56 -6 -62 -21 -7 -18 -8 -18 -8 4 -1 13 -4 21 -8 18 -3 -4 -11 0 -17 8 -9
12 -14 12 -30 0z m141 -41 c-3 -3 -12 -4 -19 -1 -8 3 -5 6 6 6 11 1 17 -2 13
-5z"/>
<path d="M8690 5998 c0 -9 -17 -13 -52 -13 -48 0 -52 -2 -59 -27 -9 -34 -3
-36 114 -37 84 -1 87 0 87 21 l0 22 16 -22 c20 -28 50 -28 57 0 10 36 -10 49
-70 47 -30 -1 -59 3 -65 9 -16 16 -28 15 -28 0z"/>
<path d="M7177 5983 c-14 -13 -7 -33 11 -33 24 0 32 8 25 26 -5 15 -25 19 -36
7z"/>
<path d="M7557 4794 c-10 -11 -9 -52 3 -59 6 -3 10 2 10 11 0 16 1 16 15 -2
13 -16 16 -17 25 -4 9 13 11 13 20 0 7 -11 10 -5 10 25 l-1 40 -19 -24 -20
-23 -18 22 c-9 12 -21 18 -25 14z"/>
<path d="M8100 4791 c0 -5 6 -11 13 -14 10 -4 10 -7 0 -18 -17 -17 -16 -29 1
-29 15 0 30 45 21 60 -8 13 -35 13 -35 1z"/>
<path d="M8164 4775 c-19 -29 -18 -30 14 -39 19 -7 22 -4 22 23 0 40 -15 47
-36 16z"/>
<path d="M8275 4790 c-3 -5 -1 -10 5 -10 8 0 10 -9 6 -25 -4 -14 -4 -25 -1
-25 9 0 34 57 28 64 -10 9 -31 7 -38 -4z"/>
<path d="M8385 4790 c-3 -5 -1 -10 5 -10 6 0 9 -4 5 -9 -3 -5 0 -13 7 -17 8
-5 6 -10 -8 -15 -18 -7 -17 -8 3 -8 29 -1 35 11 23 43 -10 27 -24 33 -35 16z"/>
<path d="M8453 4793 c-7 -2 -13 -18 -13 -34 0 -24 4 -29 25 -29 18 0 25 5 25
20 0 12 -7 20 -16 20 -14 0 -14 3 -4 15 12 15 6 18 -17 8z"/>
<path d="M8507 4793 c-13 -12 -7 -33 8 -33 21 0 19 -18 -2 -23 -14 -4 -13 -5
4 -6 28 -1 41 19 21 33 -8 6 -13 17 -11 24 5 13 -9 17 -20 5z"/>
<path d="M7782 4760 c0 -19 2 -27 5 -17 2 9 2 25 0 35 -3 9 -5 1 -5 -18z"/>
<path d="M7806 4782 c-6 -11 4 -52 13 -52 9 0 8 46 0 55 -4 3 -9 2 -13 -3z"/>
<path d="M7302 4769 c2 -6 8 -10 13 -10 5 0 11 4 13 10 2 6 -4 11 -13 11 -9 0
-15 -5 -13 -11z"/>
<path d="M7656 4764 c-4 -10 -2 -22 3 -27 15 -15 46 -3 46 18 0 26 -40 33 -49
9z m34 -9 c0 -8 -4 -15 -10 -15 -5 0 -10 7 -10 15 0 8 5 15 10 15 6 0 10 -7
10 -15z"/>
<path d="M7721 4753 l0 -28 11 25 c11 25 11 25 15 3 3 -13 9 -23 14 -23 22 0
4 45 -18 48 -19 3 -23 -1 -22 -25z"/>
<path d="M7846 4764 c-4 -10 -2 -22 3 -27 15 -15 46 -3 46 18 0 26 -40 33 -49
9z m34 -9 c0 -8 -4 -15 -10 -15 -5 0 -10 7 -10 15 0 8 5 15 10 15 6 0 10 -7
10 -15z"/>
<path d="M7911 4753 c0 -16 3 -22 6 -13 3 8 10 21 16 28 7 8 5 12 -7 12 -11 0
-16 -8 -15 -27z"/>
<path d="M7957 4773 c-16 -16 -6 -43 16 -43 18 0 19 2 7 10 -12 8 -11 10 8 10
12 0 22 -4 22 -10 0 -5 12 -10 26 -10 21 0 25 4 22 23 -3 24 -48 39 -48 16 0
-10 -3 -10 -12 -1 -13 13 -31 16 -41 5z m84 -26 c-13 -13 -26 -3 -16 12 3 6
11 8 17 5 6 -4 6 -10 -1 -17z"/>
<path d="M8217 4754 c-3 -17 0 -22 15 -21 11 1 18 9 18 22 0 29 -27 28 -33 -1z"/>
<path d="M8330 4755 c0 -29 35 -30 36 -1 1 15 -4 22 -17 22 -13 0 -19 -7 -19
-21z"/>
<path d="M7883 4645 c0 -22 2 -30 4 -17 2 12 2 30 0 40 -3 9 -5 -1 -4 -23z"/>
<path d="M7909 4673 c-6 -34 -5 -54 2 -59 5 -3 9 11 9 30 0 31 -8 50 -11 29z"/>
<path d="M7550 4640 c0 -16 5 -30 10 -30 10 0 14 15 11 34 -1 5 4 13 11 17 9
6 6 9 -9 9 -19 0 -23 -6 -23 -30z"/>
<path d="M7612 4640 c0 -19 2 -27 5 -17 2 9 2 25 0 35 -3 9 -5 1 -5 -18z"/>
<path d="M7306 4653 c-11 -11 -6 -23 9 -23 8 0 15 4 15 9 0 13 -16 22 -24 14z"/>
<path d="M7641 4633 c0 -25 1 -26 9 -8 12 27 12 35 0 35 -5 0 -10 -12 -9 -27z"/>
<path d="M7680 4645 c-10 -12 -10 -18 0 -30 16 -19 34 -20 27 -1 -3 8 2 16 13
19 12 3 20 -2 24 -16 4 -17 7 -18 20 -7 13 10 16 10 16 -1 1 -9 5 -8 15 5 21
28 19 31 -17 32 -18 0 -45 3 -59 7 -18 5 -31 2 -39 -8z"/>
<path d="M7829 4646 c-1 -9 -2 -21 -3 -28 -1 -6 7 -12 17 -14 14 -2 17 3 15
24 -3 28 -27 43 -29 18z"/>
<path d="M330 4536 c0 -20 2 -36 4 -36 8 0 12 61 4 66 -4 3 -8 -11 -8 -30z"/>
<path d="M387 4547 c-18 -18 -17 -47 2 -47 6 0 8 7 5 15 -5 11 -2 13 10 9 17
-6 19 1 8 26 -6 14 -9 13 -25 -3z"/>
<path d="M788 4558 c0 -7 -2 -19 -2 -27 -1 -8 -7 -16 -15 -19 -10 -3 -11 2 -6
18 5 15 4 20 -4 16 -6 -4 -11 -16 -11 -27 0 -14 7 -19 25 -19 22 0 25 4 25 35
0 33 -8 49 -12 23z"/>
<path d="M1462 4549 c-18 -28 -15 -49 8 -49 27 0 35 24 18 49 -14 19 -14 19
-26 0z m20 -24 c0 -5 -5 -11 -11 -13 -6 -2 -11 4 -11 13 0 9 5 15 11 13 6 -2
11 -8 11 -13z"/>
<path d="M66 4542 c-3 -6 -1 -14 5 -17 15 -10 25 3 12 16 -7 7 -13 7 -17 1z"/>
<path d="M434 4535 c-8 -19 3 -35 24 -35 16 1 16 1 0 11 -10 5 -15 16 -12 24
4 8 3 15 0 15 -4 0 -9 -7 -12 -15z"/>
<path d="M484 4535 c-4 -9 -2 -21 5 -28 8 -8 11 -5 11 11 0 29 17 28 23 0 5
-20 5 -20 4 2 -2 29 -34 40 -43 15z"/>
<path d="M573 4534 c-3 -8 0 -21 7 -27 10 -9 11 -9 6 1 -4 7 -2 19 4 27 9 11
9 15 1 15 -6 0 -14 -7 -18 -16z"/>
<path d="M649 4540 c-1 -8 -1 -18 0 -22 0 -4 -6 -5 -14 -2 -8 4 -15 1 -15 -5
0 -14 37 -15 45 -1 3 5 1 18 -4 27 -8 15 -11 15 -12 3z"/>
<path d="M934 4526 c0 -13 4 -22 9 -19 10 6 9 31 -2 37 -5 3 -8 -5 -7 -18z"/>
<path d="M967 4543 c-10 -10 -8 -45 2 -39 11 7 21 46 12 46 -4 0 -11 -3 -14
-7z"/>
<path d="M1035 4524 c0 -13 3 -24 8 -24 4 0 7 9 7 19 0 11 -3 22 -7 24 -5 3
-8 -6 -8 -19z"/>
<path d="M1089 4534 c0 -11 -3 -13 -6 -6 -7 19 -23 4 -23 -24 0 -25 15 -33 23
-11 4 10 6 10 6 0 1 -7 5 -13 11 -13 5 0 8 14 7 30 -4 35 -17 52 -18 24z"/>
<path d="M1127 4543 c-4 -3 -7 -16 -6 -27 0 -19 1 -19 10 3 10 24 8 36 -4 24z"/>
<path d="M1187 4530 c4 -16 2 -19 -11 -14 -9 3 -16 1 -16 -5 0 -6 9 -11 20
-11 15 0 20 7 20 25 0 14 -4 25 -9 25 -5 0 -7 -9 -4 -20z"/>
<path d="M1226 4543 c-3 -3 -6 -16 -5 -27 0 -19 1 -19 11 4 9 21 12 22 15 8 3
-10 8 -18 13 -18 5 0 10 8 13 18 3 14 6 13 15 -8 l12 -25 -3 25 c-2 20 -8 25
-33 27 -17 1 -34 0 -38 -4z"/>
<path d="M1340 4530 c0 -13 -5 -18 -15 -14 -8 4 -15 1 -15 -5 0 -6 9 -11 20
-11 15 0 20 7 20 25 0 14 -2 25 -5 25 -3 0 -5 -9 -5 -20z"/>
<path d="M1422 4525 c0 -16 2 -22 5 -12 2 9 2 23 0 30 -3 6 -5 -1 -5 -18z"/>
<path d="M1511 4523 l0 -28 11 25 c9 21 12 22 15 8 3 -10 9 -18 15 -18 5 0 7
7 4 16 -3 9 -6 18 -6 20 0 2 -9 4 -20 4 -15 0 -20 -6 -19 -27z"/>
<path d="M1596 4541 c-4 -5 -2 -12 4 -16 6 -4 8 -11 5 -16 -4 -5 1 -9 9 -9 19
0 20 9 2 33 -8 11 -17 14 -20 8z"/>
<path d="M1720 4539 c0 -5 -4 -7 -10 -4 -6 4 -10 -7 -10 -24 0 -17 5 -31 11
-31 5 0 7 5 4 10 -3 6 -1 10 4 10 6 0 11 -5 11 -11 0 -5 4 -8 8 -5 11 7 3 66
-9 66 -5 0 -9 -5 -9 -11z"/>
<path d="M1827 4543 c-4 -3 -7 -16 -6 -27 0 -19 1 -19 10 3 10 24 8 36 -4 24z"/>
<path d="M1880 4535 c0 -8 -4 -15 -10 -15 -5 0 -10 -4 -10 -10 0 -5 9 -10 20
-10 15 0 20 7 20 25 0 14 -4 25 -10 25 -5 0 -10 -7 -10 -15z"/>
<path d="M1920 4540 c0 -21 17 -46 25 -38 4 4 0 17 -9 30 -10 14 -16 17 -16 8z"/>
<path d="M7557 4543 c-9 -8 -9 -48 -1 -56 11 -11 47 31 41 47 -7 16 -28 21
-40 9z m28 -13 c3 -5 1 -10 -4 -10 -6 0 -11 5 -11 10 0 6 2 10 4 10 3 0 8 -4
11 -10z"/>
<path d="M7781 4518 l-1 -37 50 1 c46 0 50 2 50 24 0 18 -6 24 -21 24 -11 0
-18 -4 -14 -9 3 -5 1 -12 -5 -16 -5 -3 -10 1 -10 9 0 9 -8 16 -19 16 -11 0
-22 6 -24 13 -3 6 -6 -5 -6 -25z m29 -14 c0 -8 -5 -12 -10 -9 -6 4 -8 11 -5
16 9 14 15 11 15 -7z"/>
<path d="M8000 4542 c0 -5 -9 -12 -21 -15 -31 -8 -21 -41 14 -45 24 -3 27 0
27 27 0 16 -4 33 -10 36 -5 3 -10 2 -10 -3z m0 -43 c0 -5 -4 -9 -10 -9 -5 0
-10 7 -10 16 0 8 5 12 10 9 6 -3 10 -10 10 -16z"/>
<path d="M8586 4531 c-27 -29 -14 -53 26 -49 23 2 35 9 39 23 6 19 7 19 16 -4
6 -14 12 -20 16 -14 15 23 -5 45 -34 39 -19 -4 -31 -1 -37 10 -7 13 -11 12
-26 -5z m24 -26 c0 -8 -4 -15 -10 -15 -5 0 -10 7 -10 15 0 8 5 15 10 15 6 0
10 -7 10 -15z"/>
<path d="M552 4520 c0 -14 2 -19 5 -12 2 6 2 18 0 25 -3 6 -5 1 -5 -13z"/>
<path d="M680 4530 c0 -5 5 -10 11 -10 5 0 7 -4 4 -10 -3 -5 -1 -10 4 -10 13
0 13 3 5 24 -7 18 -24 22 -24 6z"/>
<path d="M815 4530 c-7 -12 2 -30 15 -30 5 0 7 7 4 15 -5 11 -2 13 10 9 9 -3
16 -1 16 5 0 14 -37 15 -45 1z"/>
<path d="M900 4508 c0 -17 3 -28 8 -24 10 10 10 56 0 56 -4 0 -8 -14 -8 -32z"/>
<path d="M1000 4526 c0 -8 4 -17 9 -21 6 -3 9 4 8 15 -1 23 -17 28 -17 6z"/>
<path d="M1371 4523 c-1 -16 5 -23 17 -23 10 0 13 3 6 8 -6 4 -14 14 -17 22
-4 10 -6 8 -6 -7z"/>
<path d="M1640 4526 c0 -8 5 -18 10 -21 6 -3 10 3 10 14 0 12 -4 21 -10 21 -5
0 -10 -6 -10 -14z"/>
<path d="M1670 4530 c0 -5 5 -10 10 -10 6 0 10 5 10 10 0 6 -4 10 -10 10 -5 0
-10 -4 -10 -10z"/>
<path d="M1754 4524 c3 -9 6 -18 6 -20 0 -2 9 -4 20 -4 14 0 20 6 19 23 -1 16
-2 18 -6 5 -5 -22 -23 -24 -23 -3 0 8 -5 15 -11 15 -6 0 -8 -7 -5 -16z"/>
<path d="M8360 4510 c0 -16 4 -30 8 -30 5 0 9 14 10 30 0 17 -4 30 -9 30 -5 0
-9 -13 -9 -30z"/>
<path d="M8548 4515 c-3 -14 -1 -28 3 -31 5 -3 9 9 9 25 0 38 -6 40 -12 6z"/>
<path d="M7300 4520 c0 -5 7 -10 15 -10 8 0 15 5 15 10 0 6 -7 10 -15 10 -8 0
-15 -4 -15 -10z"/>
<path d="M7613 4514 c-3 -8 -1 -20 6 -27 8 -8 11 -8 11 0 0 6 3 18 6 27 3 9 1
16 -5 16 -7 0 -14 -7 -18 -16z"/>
<path d="M7661 4508 c-1 -24 3 -28 24 -28 18 0 25 5 25 19 0 11 -4 23 -10 26
-5 3 -10 -3 -10 -14 0 -28 -18 -27 -23 2 -4 19 -4 18 -6 -5z"/>
<path d="M7720 4506 c0 -20 5 -26 23 -26 18 0 19 2 7 10 -13 8 -12 10 3 10 26
0 16 24 -11 28 -18 3 -22 -2 -22 -22z"/>
<path d="M7895 4521 c-3 -5 -1 -12 5 -16 6 -4 8 -11 5 -16 -4 -5 1 -9 9 -9 17
0 20 9 10 34 -7 18 -20 21 -29 7z"/>
<path d="M8030 4506 c0 -20 5 -26 23 -26 18 0 19 2 7 10 -13 8 -12 10 3 10 26
0 16 24 -11 28 -18 3 -22 -2 -22 -22z"/>
<path d="M8116 4505 c-9 -36 1 -48 26 -31 13 9 33 13 52 10 24 -4 28 -3 16 5
-10 7 -11 11 -2 11 6 0 12 7 12 15 0 8 -9 15 -20 15 -11 0 -20 -5 -20 -12 0
-9 -3 -9 -12 0 -20 20 -45 14 -52 -13z m30 -12 c-10 -10 -19 5 -10 18 6 11 8
11 12 0 2 -7 1 -15 -2 -18z"/>
<path d="M8241 4503 l0 -28 11 25 c11 25 11 25 15 3 3 -13 9 -23 14 -23 22 0
4 45 -18 48 -19 3 -23 -1 -22 -25z"/>
<path d="M8300 4506 c0 -20 5 -26 23 -26 18 0 19 2 7 10 -13 8 -12 10 3 10 26
0 16 24 -11 28 -18 3 -22 -2 -22 -22z"/>
<path d="M8401 4503 c0 -16 3 -22 6 -13 3 8 10 21 16 28 7 8 5 12 -7 12 -11 0
-16 -8 -15 -27z"/>
<path d="M8446 4514 c-10 -26 -7 -34 14 -34 15 0 20 7 20 25 0 28 -24 34 -34
9z"/>
<path d="M8494 4515 c-8 -19 3 -35 24 -34 11 0 12 3 5 6 -7 2 -13 11 -13 18 0
7 6 16 13 18 7 3 5 6 -6 6 -10 1 -20 -6 -23 -14z"/>
<path d="M319 4424 c-15 -18 -2 -48 22 -50 9 -1 10 0 2 3 -19 6 -16 40 5 52
15 9 15 10 1 11 -9 0 -22 -7 -30 -16z"/>
<path d="M652 4410 c0 -19 2 -27 5 -17 2 9 2 25 0 35 -3 9 -5 1 -5 -18z"/>
<path d="M723 4425 c-23 -10 -31 -39 -14 -49 5 -4 7 3 4 14 -3 11 0 20 6 20 6
0 11 -10 11 -22 0 -16 3 -19 11 -11 6 6 9 21 7 34 -3 21 -6 23 -25 14z"/>
<path d="M508 4425 c-7 -7 3 -55 11 -55 8 0 7 47 -1 55 -2 3 -7 3 -10 0z"/>
<path d="M7720 4398 c0 -36 13 -50 38 -40 18 6 15 42 -5 49 -10 4 -21 11 -25
17 -4 6 -8 -5 -8 -26z m26 -25 c-10 -10 -19 5 -10 18 6 11 8 11 12 0 2 -7 1
-15 -2 -18z"/>
<path d="M7993 4395 c0 -22 2 -30 4 -17 2 12 2 30 0 40 -3 9 -5 -1 -4 -23z"/>
<path d="M8367 4423 c-11 -10 -8 -51 3 -58 6 -3 10 0 10 7 0 7 3 23 6 36 6 21
-5 30 -19 15z"/>
<path d="M8670 4396 c0 -20 5 -36 10 -36 6 0 10 13 10 29 0 17 -4 33 -10 36
-6 4 -10 -8 -10 -29z"/>
<path d="M8703 4395 c0 -22 2 -30 4 -17 2 12 2 30 0 40 -3 9 -5 -1 -4 -23z"/>
<path d="M8757 4423 c-9 -9 -9 -71 1 -76 4 -3 7 15 7 39 0 24 0 44 -1 44 0 0
-4 -3 -7 -7z"/>
<path d="M8906 4422 c-3 -5 -10 -20 -15 -34 -8 -22 -7 -24 24 -24 31 0 32 1
23 28 -11 31 -24 43 -32 30z"/>
<path d="M8966 4423 c-3 -3 -6 -19 -6 -35 0 -24 2 -27 14 -16 9 8 11 17 5 25
-7 7 -5 13 3 15 8 3 8 7 1 11 -5 4 -13 4 -17 0z"/>
<path d="M9015 4385 c0 -24 3 -41 8 -38 4 2 7 19 7 38 0 19 -3 36 -7 38 -5 3
-8 -14 -8 -38z"/>
<path d="M60 4410 c0 -5 7 -10 15 -10 8 0 15 5 15 10 0 6 -7 10 -15 10 -8 0
-15 -4 -15 -10z"/>
<path d="M380 4401 c0 -11 3 -22 8 -24 4 -3 7 6 7 19 0 13 -3 24 -7 24 -5 0
-8 -9 -8 -19z"/>
<path d="M413 4395 c0 -14 3 -22 8 -19 5 3 9 11 9 19 0 8 -4 16 -9 19 -5 3 -8
-5 -8 -19z"/>
<path d="M447 4413 c-4 -3 -7 -13 -7 -22 1 -13 3 -13 11 2 11 19 8 33 -4 20z"/>
<path d="M478 4395 c2 -14 6 -25 8 -25 2 0 4 11 4 25 0 14 -4 25 -9 25 -4 0
-6 -11 -3 -25z"/>
<path d="M545 4410 c-3 -5 -2 -10 4 -10 5 0 13 5 16 10 3 6 2 10 -4 10 -5 0
-13 -4 -16 -10z"/>
<path d="M586 4408 c-10 -22 0 -38 24 -38 19 0 34 25 24 41 -10 17 -22 9 -17
-11 3 -11 1 -20 -5 -20 -6 0 -12 10 -15 23 -3 19 -5 20 -11 5z"/>
<path d="M760 4401 c0 -11 5 -23 10 -26 6 -4 10 5 10 19 0 14 -4 26 -10 26 -5
0 -10 -9 -10 -19z"/>
<path d="M790 4404 c0 -8 5 -12 10 -9 6 4 8 11 5 16 -9 14 -15 11 -15 -7z"/>
<path d="M863 4404 c-7 -7 -13 -19 -13 -26 0 -9 3 -9 10 2 6 10 10 11 10 3 0
-7 5 -13 10 -13 12 0 14 37 3 43 -5 3 -14 -1 -20 -9z"/>
<path d="M903 4404 c-3 -8 -1 -20 4 -25 7 -7 11 -2 11 15 0 29 -6 33 -15 10z"/>
<path d="M954 4405 c-7 -17 3 -35 19 -35 8 0 8 3 0 11 -6 6 -9 18 -6 25 3 8 2
14 -1 14 -4 0 -9 -7 -12 -15z"/>
<path d="M1004 4405 c-6 -16 2 -35 16 -35 4 0 6 9 3 20 -4 16 -2 19 12 13 13
-4 16 -3 11 5 -10 17 -36 15 -42 -3z"/>
<path d="M1060 4411 c0 -6 5 -13 10 -16 6 -4 8 -11 5 -16 -4 -5 -2 -9 3 -9 17
0 21 12 9 31 -13 20 -27 25 -27 10z"/>
<path d="M1112 4398 c2 -13 11 -24 21 -26 21 -4 34 25 17 41 -9 9 -11 8 -8 -7
1 -10 -3 -21 -11 -24 -10 -3 -12 1 -8 17 3 11 1 21 -5 21 -5 0 -8 -10 -6 -22z"/>
<path d="M7550 4416 c0 -1 5 -18 12 -36 10 -31 12 -32 25 -15 13 18 13 18 26
0 13 -17 15 -16 25 15 14 40 14 40 2 40 -5 0 -10 -8 -10 -17 -1 -16 -2 -16
-15 1 -15 20 -15 20 -30 0 -13 -17 -14 -17 -15 -1 0 9 -4 17 -10 17 -5 0 -10
-2 -10 -4z"/>
<path d="M8015 4399 c-4 -12 -2 -26 4 -32 8 -8 11 -2 11 21 0 37 -6 41 -15 11z"/>
<path d="M8150 4391 c0 -16 4 -32 9 -36 5 -3 9 8 9 25 -1 40 -18 50 -18 11z"/>
<path d="M8192 4390 c0 -19 2 -27 5 -17 2 9 2 25 0 35 -3 9 -5 1 -5 -18z"/>
<path d="M8401 4391 c-1 -27 2 -32 11 -23 8 8 8 17 0 34 -10 22 -11 21 -11
-11z"/>
<path d="M8781 4413 c-1 -6 4 -24 10 -40 10 -27 11 -28 25 -8 13 17 16 18 24
5 11 -17 24 -7 35 28 4 13 2 22 -4 22 -6 0 -11 -8 -11 -17 -1 -16 -2 -16 -16
2 -14 18 -16 19 -28 3 -11 -15 -13 -15 -23 0 -7 10 -12 12 -12 5z"/>
<path d="M7300 4395 c0 -8 7 -15 15 -15 8 0 15 7 15 15 0 8 -7 15 -15 15 -8 0
-15 -7 -15 -15z"/>
<path d="M7667 4403 c-20 -20 1 -61 24 -47 8 4 7 9 -2 15 -11 7 -10 9 3 9 11
0 15 5 12 15 -6 16 -26 20 -37 8z"/>
<path d="M7810 4390 c-8 -15 -9 -25 -2 -32 17 -17 44 -1 40 24 -4 30 -24 34
-38 8z"/>
<path d="M7867 4403 c-10 -9 -9 -63 1 -63 5 0 17 6 27 14 17 12 21 12 30 -1 9
-13 14 -12 34 4 15 12 20 24 16 36 -8 20 -36 22 -53 5 -9 -9 -12 -9 -12 0 0
13 -32 17 -43 5z m33 -23 c0 -5 -4 -10 -10 -10 -5 0 -10 5 -10 10 0 6 5 10 10
10 6 0 10 -4 10 -10z m60 0 c0 -5 -4 -10 -10 -10 -5 0 -10 5 -10 10 0 6 5 10
10 10 6 0 10 -4 10 -10z"/>
<path d="M8047 4403 c-11 -10 -8 -41 4 -49 6 -3 16 -1 22 5 8 8 8 11 -1 11
-16 0 -15 27 1 33 8 4 6 6 -4 6 -9 1 -19 -2 -22 -6z"/>
<path d="M8097 4388 c-7 -27 -1 -39 18 -31 19 7 20 53 1 53 -7 0 -16 -10 -19
-22z"/>
<path d="M8213 4394 c-3 -8 1 -23 10 -31 13 -13 19 -14 31 -4 8 7 20 10 26 6
5 -3 10 1 10 9 0 9 5 16 10 16 6 0 10 -7 10 -15 0 -8 5 -15 10 -15 11 0 13 11
4 34 -7 19 -44 22 -44 4 0 -9 -3 -9 -12 0 -17 17 -48 15 -55 -4z m33 -21 c-10
-10 -19 5 -10 18 6 11 8 11 12 0 2 -7 1 -15 -2 -18z"/>
<path d="M8431 4383 c0 -16 3 -22 6 -13 3 8 10 21 16 28 7 8 5 12 -7 12 -11 0
-16 -8 -15 -27z"/>
<path d="M8471 4397 c-8 -10 -7 -19 4 -33 14 -19 15 -18 33 5 l19 24 6 -23 c5
-19 9 -21 21 -11 11 9 16 9 21 0 6 -8 10 -7 16 2 14 22 10 39 -6 33 -8 -4 -15
-1 -15 6 0 9 -4 9 -12 2 -8 -5 -22 -6 -33 -1 -29 11 -41 11 -54 -4z"/>
<path d="M8617 4388 c-8 -27 5 -43 28 -34 21 8 16 50 -6 54 -10 2 -19 -6 -22
-20z"/>
<path d="M1138 4314 c-5 -4 -8 -21 -7 -38 0 -30 0 -30 10 -7 11 27 8 57 -3 45z"/>
<path d="M1463 4285 c0 -22 2 -30 4 -17 2 12 2 30 0 40 -3 9 -5 -1 -4 -23z"/>
<path d="M310 4307 c0 -14 24 -57 32 -57 14 0 9 20 -12 42 -11 12 -20 19 -20
15z"/>
<path d="M350 4295 c0 -8 5 -15 10 -15 6 0 10 -7 10 -15 0 -8 5 -15 10 -15 12
0 33 50 25 58 -2 3 -9 -6 -13 -19 l-9 -24 -7 23 c-8 25 -26 30 -26 7z"/>
<path d="M480 4282 c0 -18 4 -32 8 -32 10 0 10 46 0 56 -5 4 -8 -7 -8 -24z"/>
<path d="M752 4280 c0 -19 2 -27 5 -17 2 9 2 25 0 35 -3 9 -5 1 -5 -18z"/>
<path d="M1431 4281 c-1 -24 2 -32 9 -25 7 7 7 19 1 35 -9 23 -10 22 -10 -10z"/>
<path d="M8686 4271 c-9 -24 -14 -46 -12 -49 8 -7 38 67 33 81 -2 6 -11 -9
-21 -32z"/>
<path d="M65 4291 c-6 -11 9 -23 19 -14 9 9 7 23 -3 23 -6 0 -12 -4 -16 -9z"/>
<path d="M514 4275 c0 -14 4 -25 9 -25 10 0 9 38 -2 44 -5 3 -8 -5 -7 -19z"/>
<path d="M643 4293 c-7 -3 -13 -18 -13 -34 0 -18 4 -28 10 -24 6 4 8 15 5 25
-3 10 -1 21 5 25 5 3 10 -3 10 -14 0 -14 5 -19 15 -15 10 4 15 0 15 -11 0 -9
5 -13 10 -10 6 4 8 15 5 25 -3 10 -1 21 5 25 6 3 10 -3 10 -16 0 -18 3 -20 12
-11 9 10 9 16 -4 28 -14 14 -17 14 -29 1 -11 -12 -17 -13 -29 -2 -8 7 -21 10
-27 8z"/>
<path d="M810 4285 c-9 -11 -10 -19 -3 -26 7 -7 12 -2 15 15 6 30 5 31 -12 11z"/>
<path d="M873 4293 c4 -6 0 -13 -8 -17 -22 -8 -18 -26 5 -26 22 0 28 34 8 46
-6 4 -8 3 -5 -3z"/>
<path d="M910 4275 c0 -33 15 -33 16 0 1 14 -2 25 -7 25 -5 0 -9 -11 -9 -25z"/>
<path d="M986 4285 c-16 -16 -14 -35 4 -35 5 0 7 6 4 14 -3 8 -1 17 5 21 7 4
11 -3 11 -16 0 -18 3 -20 12 -11 10 10 9 16 -3 28 -15 14 -18 14 -33 -1z"/>
<path d="M1053 4293 c-7 -3 -13 -14 -12 -26 0 -21 1 -20 10 3 l10 25 14 -25
c10 -17 14 -20 15 -9 0 20 -21 38 -37 32z"/>
<path d="M1398 4274 c2 -13 8 -24 13 -24 14 0 10 37 -4 43 -10 4 -13 -2 -9
-19z"/>
<path d="M7554 4288 c-4 -6 0 -16 9 -23 22 -16 21 -22 0 -28 -14 -4 -13 -5 4
-6 30 -1 40 19 17 36 -16 12 -17 15 -4 23 13 8 13 10 -2 10 -9 0 -20 -5 -24
-12z"/>
<path d="M7613 4265 c0 -22 2 -30 4 -17 2 12 2 30 0 40 -3 9 -5 -1 -4 -23z"/>
<path d="M8021 4281 c-38 -29 -22 -49 39 -49 34 0 48 3 39 9 -10 6 -11 9 -1 9
6 0 12 7 12 16 0 12 -7 15 -25 12 -15 -3 -29 0 -33 8 -6 10 -12 9 -31 -5z m14
-20 c3 -5 1 -12 -5 -16 -5 -3 -10 1 -10 9 0 18 6 21 15 7z"/>
<path d="M8173 4286 c-33 -16 -31 -56 2 -56 22 0 25 4 25 35 0 19 -1 34 -2 34
-2 -1 -13 -6 -25 -13z m11 -37 c-3 -5 -10 -7 -15 -3 -5 3 -7 10 -3 15 3 5 10
7 15 3 5 -3 7 -10 3 -15z"/>
<path d="M8513 4285 c-23 -25 -16 -55 12 -55 14 0 25 6 25 13 0 8 3 7 10 -3 7
-12 11 -10 19 10 l9 25 10 -25 11 -25 0 28 c1 22 -3 27 -24 27 -14 0 -25 -6
-26 -12 0 -7 -5 -3 -11 10 -13 25 -18 27 -35 7z m21 -36 c-3 -5 -10 -7 -15 -3
-5 3 -7 10 -3 15 3 5 10 7 15 3 5 -3 7 -10 3 -15z"/>
<path d="M8750 4264 c0 -31 2 -34 15 -21 8 9 20 17 27 19 19 7 1 38 -22 38
-16 0 -20 -6 -20 -36z m30 16 c0 -5 -5 -10 -11 -10 -5 0 -7 5 -4 10 3 6 8 10
11 10 2 0 4 -4 4 -10z"/>
<path d="M9136 4274 c-4 -15 -2 -32 3 -37 8 -8 11 0 11 26 0 44 -5 47 -14 11z"/>
<path d="M9177 4282 c-25 -28 -22 -52 8 -52 14 0 25 5 25 11 0 8 4 8 14 0 12
-10 15 -8 18 11 l5 23 11 -25 11 -25 0 28 c1 22 -3 27 -24 27 -14 0 -25 -6
-25 -12 -1 -7 -6 -3 -13 10 -13 22 -14 22 -30 4z m23 -20 c0 -13 -12 -22 -22
-16 -10 6 -1 24 13 24 5 0 9 -4 9 -8z"/>
<path d="M9333 4286 c-33 -16 -31 -56 2 -56 22 0 25 4 25 35 0 19 -1 34 -2 34
-2 -1 -13 -6 -25 -13z m7 -32 c0 -8 -5 -12 -10 -9 -6 4 -8 11 -5 16 9 14 15
11 15 -7z"/>
<path d="M420 4269 c0 -11 5 -19 10 -19 6 0 10 5 10 10 0 6 7 10 15 10 8 0 15
4 15 9 0 5 -11 9 -25 9 -18 0 -25 -6 -25 -19z"/>
<path d="M594 4274 c4 -12 2 -15 -9 -10 -8 3 -15 1 -15 -4 0 -6 9 -10 20 -10
13 0 20 7 20 20 0 11 -5 20 -11 20 -6 0 -8 -7 -5 -16z"/>
<path d="M782 4270 c0 -14 2 -19 5 -12 2 6 2 18 0 25 -3 6 -5 1 -5 -13z"/>
<path d="M952 4270 c0 -14 2 -19 5 -12 2 6 2 18 0 25 -3 6 -5 1 -5 -13z"/>
<path d="M1160 4270 c0 -19 3 -21 12 -12 9 9 9 15 0 24 -9 9 -12 7 -12 -12z"/>
<path d="M1190 4270 c0 -11 2 -20 4 -20 2 0 6 9 9 20 3 11 1 20 -4 20 -5 0 -9
-9 -9 -20z"/>
<path d="M1230 4270 c0 -11 5 -20 10 -20 6 0 10 9 10 20 0 11 -4 20 -10 20 -5
0 -10 -9 -10 -20z"/>
<path d="M1260 4280 c0 -5 5 -10 10 -10 6 0 10 5 10 10 0 6 -4 10 -10 10 -5 0
-10 -4 -10 -10z"/>
<path d="M1290 4273 c0 -18 21 -27 30 -13 6 10 8 10 12 -1 6 -17 28 -2 28 19
0 15 -2 15 -10 2 -5 -8 -10 -10 -10 -4 0 7 -11 11 -25 10 -14 0 -25 -6 -25
-13z"/>
<path d="M7306 4283 c-11 -11 -6 -23 9 -23 8 0 15 4 15 9 0 13 -16 22 -24 14z"/>
<path d="M7682 4264 c4 -36 24 -42 22 -7 0 15 -6 29 -13 31 -8 3 -11 -5 -9
-24z"/>
<path d="M8273 4269 c4 -13 7 -27 7 -31 0 -5 4 -8 8 -8 13 0 6 54 -8 58 -9 3
-11 -2 -7 -19z"/>
<path d="M7635 4271 c-3 -5 -1 -12 5 -16 6 -4 8 -11 5 -16 -4 -5 1 -9 9 -9 17
0 20 9 10 34 -7 18 -20 21 -29 7z"/>
<path d="M7720 4256 c0 -20 5 -26 23 -26 18 0 19 2 7 10 -13 8 -12 10 3 10 26
0 16 24 -11 28 -18 3 -22 -2 -22 -22z"/>
<path d="M7781 4253 l0 -28 11 25 c11 25 11 25 15 3 3 -13 9 -23 14 -23 5 0 9
10 9 23 1 22 1 22 15 -3 l14 -25 1 28 c0 25 -3 27 -40 27 -37 0 -40 -2 -39
-27z"/>
<path d="M7876 4265 c-11 -28 -7 -35 20 -35 21 0 25 4 22 22 -4 27 -33 36 -42
13z"/>
<path d="M7932 4255 c1 -14 8 -25 15 -25 16 0 26 17 13 25 -6 4 -8 11 -5 16 4
5 -1 9 -9 9 -11 0 -15 -8 -14 -25z"/>
<path d="M8214 4265 c-8 -19 3 -35 24 -35 15 0 15 2 2 10 -13 8 -12 10 3 10 9
0 17 7 17 15 0 19 -39 20 -46 0z"/>
<path d="M8312 4258 c2 -14 11 -24 23 -26 17 -3 17 -1 5 7 -12 9 -11 11 8 11
12 0 22 -4 22 -10 0 -5 10 -10 23 -10 21 1 21 1 3 12 -19 11 -19 11 -1 24 18
13 18 14 -2 14 -12 0 -24 -6 -26 -12 -4 -10 -6 -10 -6 0 -1 6 -13 12 -27 12
-21 0 -25 -4 -22 -22z"/>
<path d="M8420 4255 c0 -19 5 -25 23 -25 21 1 21 1 3 12 -19 11 -19 11 -1 24
18 13 18 14 -3 14 -17 0 -22 -6 -22 -25z"/>
<path d="M8470 4255 c0 -14 5 -25 10 -25 6 0 10 11 10 25 0 14 -4 25 -10 25
-5 0 -10 -11 -10 -25z"/>
<path d="M8811 4253 c0 -16 3 -22 6 -13 3 8 10 21 16 28 7 8 5 12 -7 12 -11 0
-16 -8 -15 -27z"/>
<path d="M8850 4255 c0 -19 5 -25 23 -25 16 0 19 3 8 9 -11 7 -10 10 5 13 10
2 25 -3 31 -12 11 -13 14 -13 23 0 5 8 10 22 10 30 0 13 -1 13 -10 0 -7 -10
-13 -11 -17 -5 -5 6 -23 12 -40 13 -29 2 -33 -1 -33 -23z"/>
<path d="M8964 4265 c-8 -19 3 -35 24 -35 15 0 15 2 2 10 -13 8 -12 10 3 10 9
0 17 7 17 15 0 19 -39 20 -46 0z"/>
<path d="M9020 4255 c0 -31 8 -32 19 -2 l9 22 10 -25 11 -25 0 28 c1 22 -3 27
-24 27 -20 0 -25 -5 -25 -25z"/>
<path d="M9084 4265 c-8 -19 3 -35 24 -34 11 0 12 3 5 6 -7 2 -13 11 -13 18 0
7 6 16 13 18 7 3 5 6 -6 6 -10 1 -20 -6 -23 -14z"/>
<path d="M9374 4265 c-8 -19 3 -35 24 -35 15 0 15 2 2 10 -13 8 -12 10 3 10 9
0 17 7 17 15 0 19 -39 20 -46 0z"/>
<path d="M7115 4260 c-13 -5 -14 -9 -5 -9 8 0 24 4 35 9 13 5 14 9 5 9 -8 0
-24 -4 -35 -9z"/>
<path d="M6898 4193 c7 -3 16 -2 19 1 4 3 -2 6 -13 5 -11 0 -14 -3 -6 -6z"/>
<path d="M320 4155 c0 -27 4 -35 18 -35 11 0 13 3 5 8 -6 4 -10 20 -9 35 2 15
-1 27 -5 27 -5 0 -9 -16 -9 -35z"/>
<path d="M492 4160 c0 -19 2 -27 5 -17 2 9 2 25 0 35 -3 9 -5 1 -5 -18z"/>
<path d="M722 4173 c-17 -18 -12 -47 9 -51 22 -4 32 25 16 48 -10 15 -14 15
-25 3z m18 -37 c-14 -14 -24 0 -16 21 6 15 8 15 16 3 6 -9 5 -19 0 -24z"/>
<path d="M890 4181 c0 -5 -9 -11 -21 -14 -28 -7 -21 -41 9 -45 19 -3 22 1 22
32 0 20 -2 36 -5 36 -3 0 -5 -4 -5 -9z m0 -30 c0 -6 -4 -13 -10 -16 -5 -3 -10
1 -10 9 0 9 5 16 10 16 6 0 10 -4 10 -9z"/>
<path d="M1002 4160 c0 -19 2 -27 5 -17 2 9 2 25 0 35 -3 9 -5 1 -5 -18z"/>
<path d="M1440 4180 c0 -5 -6 -10 -14 -10 -8 0 -17 -4 -20 -9 -10 -16 5 -41
25 -41 15 0 19 7 19 35 0 19 -2 35 -5 35 -3 0 -5 -4 -5 -10z m0 -29 c0 -6 -4
-13 -10 -16 -5 -3 -10 1 -10 9 0 9 5 16 10 16 6 0 10 -4 10 -9z"/>
<path d="M1560 4181 c0 -5 -9 -11 -21 -14 -28 -7 -21 -41 9 -45 19 -3 22 1 22
32 0 20 -2 36 -5 36 -3 0 -5 -4 -5 -9z m0 -29 c0 -13 -12 -22 -22 -16 -10 6
-1 24 13 24 5 0 9 -4 9 -8z"/>
<path d="M8221 4151 c-13 -30 -15 -31 -33 -15 -14 14 -16 19 -6 26 9 5 6 8 -9
8 -27 0 -31 -25 -5 -39 16 -10 16 -10 0 -11 -10 0 -18 -5 -18 -11 0 -7 10 -9
25 -7 13 3 26 0 29 -6 5 -14 38 62 33 77 -2 6 -9 -4 -16 -22z"/>
<path d="M8400 4137 c0 -30 4 -46 10 -42 13 8 13 55 0 75 -7 11 -10 2 -10 -33z"/>
<path d="M60 4160 c0 -5 7 -10 15 -10 8 0 15 5 15 10 0 6 -7 10 -15 10 -8 0
-15 -4 -15 -10z"/>
<path d="M370 4164 c0 -6 6 -18 13 -29 14 -18 18 -16 31 19 5 15 4 17 -7 8
-10 -9 -17 -8 -25 0 -7 7 -12 8 -12 2z"/>
<path d="M443 4155 c-19 -21 -16 -35 7 -35 15 0 20 7 20 25 0 28 -9 31 -27 10z"/>
<path d="M513 4150 c1 -17 9 -26 25 -28 18 -3 22 1 21 25 0 27 -1 27 -9 6 -5
-13 -12 -23 -15 -23 -3 0 -10 10 -15 23 -10 22 -10 22 -7 -3z"/>
<path d="M600 4148 c0 -17 -3 -19 -9 -9 -5 8 -11 9 -15 3 -8 -14 11 -25 29
-18 17 6 20 32 5 41 -6 3 -10 -4 -10 -17z"/>
<path d="M632 4148 c2 -13 11 -24 23 -26 20 -4 20 -3 1 11 -10 7 -16 19 -12
25 4 7 2 12 -4 12 -6 0 -10 -10 -8 -22z"/>
<path d="M682 4150 c0 -14 2 -19 5 -12 2 6 2 18 0 25 -3 6 -5 1 -5 -13z"/>
<path d="M770 4148 c0 -21 1 -21 14 -3 13 18 13 18 24 -1 11 -18 11 -18 12 4
0 17 -6 22 -25 22 -19 0 -25 -5 -25 -22z"/>
<path d="M922 4148 c2 -14 11 -24 23 -25 11 -2 14 0 8 3 -7 3 -13 14 -13 25 0
10 -5 19 -11 19 -6 0 -9 -10 -7 -22z"/>
<path d="M951 4154 c0 -11 3 -14 6 -6 3 7 2 16 -1 19 -3 4 -6 -2 -5 -13z"/>
<path d="M1043 4155 c-19 -21 -16 -35 7 -35 15 0 20 7 20 25 0 28 -9 31 -27
10z"/>
<path d="M1119 4151 c6 -10 7 -21 4 -25 -3 -3 -1 -6 5 -6 19 0 24 20 8 35 -20
21 -29 19 -17 -4z"/>
<path d="M1162 4148 c2 -14 11 -24 23 -25 11 -2 14 0 8 3 -7 3 -13 14 -13 25
0 10 -5 19 -11 19 -6 0 -9 -10 -7 -22z"/>
<path d="M1190 4160 c0 -5 5 -10 11 -10 5 0 7 5 4 10 -3 6 -8 10 -11 10 -2 0
-4 -4 -4 -10z"/>
<path d="M1221 4138 c0 -18 3 -27 6 -20 2 6 9 12 14 12 6 0 7 -4 4 -10 -3 -5
-2 -10 3 -10 5 0 9 14 9 30 0 22 -5 30 -19 30 -14 0 -18 -7 -17 -32z"/>
<path d="M1279 4165 c-13 -12 4 -45 22 -45 14 0 19 7 18 28 -2 23 -2 24 -6 5
-6 -29 -21 -30 -25 -2 -2 11 -6 18 -9 14z"/>
<path d="M1340 4150 c0 -11 2 -20 4 -20 2 0 6 9 9 20 3 11 1 20 -4 20 -5 0 -9
-9 -9 -20z"/>
<path d="M1382 4150 c0 -14 2 -19 5 -12 2 6 2 18 0 25 -3 6 -5 1 -5 -13z"/>
<path d="M1490 4148 c0 -17 -3 -19 -9 -9 -5 8 -11 9 -15 3 -8 -14 11 -25 29
-18 17 6 21 46 5 46 -5 0 -10 -10 -10 -22z"/>
<path d="M7690 4142 c0 -17 4 -33 9 -36 10 -7 9 49 -2 60 -4 4 -7 -7 -7 -24z"/>
<path d="M8016 4157 c-5 -9 -5 -29 0 -45 7 -25 8 -26 11 -4 3 12 3 32 0 45 -3
19 -4 20 -11 4z"/>
<path d="M8052 4140 c0 -19 2 -27 5 -17 2 9 2 25 0 35 -3 9 -5 1 -5 -18z"/>
<path d="M8080 4136 c0 -28 4 -36 18 -36 28 0 44 16 40 41 -2 18 -10 25 -30
27 -26 3 -28 1 -28 -32z m40 5 c0 -27 -17 -35 -23 -11 -5 19 0 30 15 30 4 0 8
-9 8 -19z"/>
<path d="M8250 4140 c0 -16 5 -30 10 -30 6 0 10 14 10 30 0 17 -4 30 -10 30
-5 0 -10 -13 -10 -30z"/>
<path d="M8280 4139 c0 -16 5 -29 10 -29 6 0 10 5 10 10 0 6 7 10 15 10 8 0
15 5 15 10 0 6 8 5 19 -2 11 -7 17 -16 15 -20 -3 -5 -10 -6 -15 -3 -5 4 -9 1
-9 -4 0 -14 37 -14 45 0 4 5 -1 19 -10 29 -13 14 -13 19 -3 23 7 2 -11 5 -39
5 -52 1 -53 0 -53 -29z"/>
<path d="M7587 4154 c-4 -4 -7 -17 -6 -28 0 -19 1 -19 12 -4 10 15 12 15 24 0
12 -15 13 -14 11 8 -3 24 -27 38 -41 24z"/>
<path d="M7646 4152 c-7 -12 4 -52 15 -52 13 0 18 15 12 38 -5 22 -18 29 -27
14z"/>
<path d="M7743 4153 c-7 -3 -13 -17 -13 -31 l0 -27 15 29 c17 32 16 36 -2 29z"/>
<path d="M7837 4153 c-7 -11 2 -53 12 -53 4 0 12 5 19 12 9 9 12 9 12 0 0 -17
40 -15 46 3 4 8 10 15 15 15 4 0 6 -7 3 -15 -4 -10 0 -15 11 -15 14 0 16 6 10
27 -8 33 -16 43 -22 26 -3 -10 -9 -10 -24 0 -15 9 -22 8 -36 -5 -15 -16 -17
-16 -28 -1 -7 9 -15 12 -18 6z m73 -23 c0 -5 -4 -10 -10 -10 -5 0 -10 5 -10
10 0 6 5 10 10 10 6 0 10 -4 10 -10z"/>
<path d="M7550 4130 c0 -11 5 -20 10 -20 6 0 10 9 10 20 0 11 -4 20 -10 20 -5
0 -10 -9 -10 -20z"/>
<path d="M7773 4130 c1 -17 9 -26 25 -28 18 -3 22 1 22 25 -1 25 -2 26 -13 11
-12 -15 -14 -15 -25 0 -10 15 -12 14 -9 -8z"/>
<path d="M6548 4093 c7 -3 16 -2 19 1 4 3 -2 6 -13 5 -11 0 -14 -3 -6 -6z"/>
<path d="M6425 4060 c-13 -6 -15 -9 -5 -9 8 0 22 4 30 9 18 12 2 12 -25 0z"/>
<path d="M8304 4046 c-3 -9 -12 -16 -20 -16 -8 0 -14 -10 -14 -25 0 -31 8 -32
20 -2 l9 22 0 -22 c1 -36 18 -27 23 13 4 37 -8 57 -18 30z"/>
<path d="M7557 4043 c-11 -10 -8 -51 3 -58 6 -4 10 8 10 29 0 37 -2 41 -13 29z"/>
<path d="M7740 4021 c0 -17 5 -33 10 -36 6 -4 10 8 10 29 0 20 -4 36 -10 36
-5 0 -10 -13 -10 -29z"/>
<path d="M8027 4023 c-3 -16 -1 -32 4 -37 5 -6 9 4 9 27 0 44 -6 48 -13 10z"/>
<path d="M8335 4030 c-3 -11 -2 -28 4 -37 8 -15 10 -11 11 20 0 41 -5 47 -15
17z"/>
<path d="M8411 4016 c-1 -29 2 -37 10 -29 8 8 8 19 1 40 -10 28 -10 28 -11
-11z"/>
<path d="M8498 4020 c-3 -17 -1 -33 4 -36 4 -3 8 11 8 30 0 44 -6 47 -12 6z"/>
<path d="M9183 4015 c0 -22 2 -30 4 -17 2 12 2 30 0 40 -3 9 -5 -1 -4 -23z"/>
<path d="M9215 4030 c-22 -25 -12 -52 17 -48 27 4 35 32 15 53 -13 12 -17 12
-32 -5z m25 -19 c0 -6 -4 -13 -10 -16 -5 -3 -10 1 -10 9 0 9 5 16 10 16 6 0
10 -4 10 -9z"/>
<path d="M7644 4024 c3 -9 6 -22 6 -30 0 -8 4 -14 8 -14 5 0 9 14 9 30 0 19
-5 30 -15 30 -9 0 -12 -6 -8 -16z"/>
<path d="M8213 4033 c-17 -3 -23 -11 -23 -29 0 -14 4 -22 10 -19 6 3 10 13 10
21 0 21 17 17 23 -6 8 -29 23 -24 21 7 -1 29 -7 32 -41 26z"/>
<path d="M8900 4025 c-15 -19 -6 -45 16 -45 14 0 14 3 4 15 -11 13 -10 14 4 9
10 -4 16 -1 16 9 0 21 -26 29 -40 12z"/>
<path d="M7302 4019 c2 -6 8 -10 13 -10 5 0 11 4 13 10 2 6 -4 11 -13 11 -9 0
-15 -5 -13 -11z"/>
<path d="M7580 4011 c0 -11 5 -23 10 -26 6 -3 10 3 10 14 0 28 18 27 23 -1 4
-20 4 -19 6 5 1 23 -3 27 -24 27 -18 0 -25 -5 -25 -19z"/>
<path d="M7684 4015 c-8 -20 4 -35 29 -35 18 0 19 2 7 10 -10 6 -11 10 -2 10
6 0 12 7 12 15 0 19 -39 20 -46 0z"/>
<path d="M7770 4007 c0 -23 27 -46 53 -47 13 0 17 8 17 35 0 33 -1 34 -35 33
-28 -1 -35 -5 -35 -21z"/>
<path d="M7854 4015 c-8 -21 4 -35 29 -34 12 0 16 3 10 6 -7 2 -13 9 -13 14 0
6 5 7 10 4 6 -3 10 1 10 9 0 20 -39 21 -46 1z"/>
<path d="M7910 4010 c0 -28 18 -34 23 -8 4 22 5 22 11 3 5 -13 17 -21 37 -22
27 -2 29 0 18 13 -10 12 -10 17 -1 23 7 4 -10 8 -38 9 -43 1 -50 -2 -50 -18z"/>
<path d="M8056 4015 c-11 -28 -7 -35 20 -35 21 0 25 4 22 22 -4 27 -33 36 -42
13z"/>
<path d="M8137 4011 c-6 -24 0 -31 25 -31 13 0 18 7 18 25 0 31 -35 35 -43 6z"/>
<path d="M8362 4008 c2 -14 11 -24 23 -25 11 -2 14 0 8 3 -7 3 -13 12 -13 19
0 7 6 16 13 18 6 3 2 6 -11 6 -19 1 -23 -4 -20 -21z"/>
<path d="M8440 4005 c0 -18 5 -25 20 -25 15 0 20 7 20 25 0 18 -5 25 -20 25
-15 0 -20 -7 -20 -25z"/>
<path d="M8550 3994 c0 -34 1 -35 21 -20 13 9 33 13 49 9 30 -6 43 6 34 31 -8
21 -41 20 -47 -1 -4 -17 -5 -17 -6 0 -1 11 -9 17 -26 17 -22 0 -25 -4 -25 -36z
m30 10 c0 -8 -5 -12 -10 -9 -6 4 -8 11 -5 16 9 14 15 11 15 -7z"/>
<path d="M8671 4003 c1 -22 2 -23 6 -8 3 11 10 23 17 27 7 5 5 8 -6 8 -13 0
-18 -7 -17 -27z"/>
<path d="M8710 4005 c0 -18 5 -25 20 -25 15 0 20 7 20 25 0 18 -5 25 -20 25
-15 0 -20 -7 -20 -25z"/>
<path d="M8790 3996 c0 -33 1 -34 25 -23 35 17 35 57 0 57 -22 0 -25 -4 -25
-34z m35 15 c3 -5 1 -12 -5 -16 -5 -3 -10 1 -10 9 0 18 6 21 15 7z"/>
<path d="M8850 4010 c0 -11 4 -20 9 -20 5 0 11 9 14 20 3 13 0 20 -9 20 -8 0
-14 -9 -14 -20z"/>
<path d="M8950 4019 c0 -8 5 -21 10 -29 9 -13 12 -12 25 4 13 17 15 17 21 3 3
-10 15 -17 26 -17 17 0 18 2 8 16 -8 8 -9 14 -3 12 6 -2 11 2 12 7 1 6 -15 11
-34 12 -19 0 -35 -4 -35 -9 0 -6 -6 -5 -15 2 -12 10 -15 10 -15 -1z"/>
<path d="M9071 4001 c2 -23 2 -24 6 -3 5 27 23 30 23 4 0 -14 8 -19 31 -20 24
-1 29 2 20 11 -16 16 -14 25 7 30 9 2 -7 4 -35 4 -51 1 -53 0 -52 -26z"/>
<path d="M9271 4003 l0 -28 11 25 c11 25 11 25 15 3 6 -31 23 -29 23 2 0 20
-5 25 -25 25 -21 0 -25 -5 -24 -27z"/>
<path d="M7590 3921 c0 -5 -9 -11 -21 -14 -29 -8 -22 -51 9 -55 20 -3 22 1 22
37 0 23 -2 41 -5 41 -3 0 -5 -4 -5 -9z m0 -41 c0 -5 -4 -10 -10 -10 -5 0 -10
5 -10 10 0 6 5 10 10 10 6 0 10 -4 10 -10z"/>
<path d="M7850 3890 c0 -31 20 -43 20 -12 1 13 4 12 14 -7 9 -16 16 -20 20
-12 6 9 11 9 22 0 11 -9 16 -7 23 12 10 26 3 48 -9 29 -6 -10 -9 -10 -15 0 -6
9 -10 9 -17 -1 -7 -11 -11 -11 -15 -1 -2 6 -9 10 -14 6 -5 -3 -9 0 -9 5 0 6
-4 11 -10 11 -5 0 -10 -13 -10 -30z"/>
<path d="M7621 3901 c-19 -12 -4 -51 20 -51 14 0 19 7 19 30 0 30 -13 37 -39
21z"/>
<path d="M7700 3885 c0 -28 20 -35 21 -7 0 12 3 10 11 -8 11 -25 11 -25 15 -2
3 12 9 22 14 22 5 0 9 -10 10 -22 0 -13 3 -17 6 -10 4 10 8 10 19 1 20 -17 46
-3 42 23 -3 26 -38 38 -38 14 0 -9 -4 -16 -10 -16 -5 0 -10 7 -10 15 0 11 -11
15 -40 15 -36 0 -40 -2 -40 -25z"/>
<path d="M7967 3888 c-8 -27 5 -43 28 -34 21 8 16 50 -6 54 -10 2 -19 -6 -22
-20z"/>
<path d="M8027 3903 c-11 -10 -8 -43 3 -43 6 0 10 4 10 9 0 5 3 16 6 25 6 16
-7 22 -19 9z"/>
<path d="M8064 3895 c-8 -21 3 -45 20 -45 16 0 31 34 21 50 -9 15 -35 12 -41
-5z"/>
<path d="M7550 3793 c0 -18 22 -63 32 -63 9 0 28 43 28 63 0 7 -7 3 -15 -7
-15 -20 -15 -20 -30 0 -8 10 -15 14 -15 7z"/>
<path d="M7620 3763 c1 -34 2 -36 14 -20 7 9 18 17 25 17 6 0 11 9 11 20 0 15
-7 20 -25 20 -22 0 -25 -4 -25 -37z"/>
<path d="M7680 3771 c0 -32 20 -55 20 -24 1 17 1 17 15 -1 17 -22 35 -13 35
19 0 28 -20 45 -20 18 -1 -17 -1 -17 -14 0 -20 26 -36 21 -36 -12z"/>
<path d="M7817 3793 c-11 -10 -8 -51 3 -58 6 -3 10 2 10 11 0 16 1 16 18 1 27
-24 32 -21 32 18 0 19 -4 35 -10 35 -5 0 -10 -8 -10 -17 -1 -17 -1 -17 -11 0
-11 18 -21 21 -32 10z"/>
<path d="M7900 3781 c-5 -11 -10 -27 -10 -37 0 -13 3 -14 15 -4 12 10 18 10
30 0 18 -15 20 -1 3 35 -13 30 -24 32 -38 6z"/>
<path d="M7964 3786 c-10 -26 1 -51 24 -54 27 -4 29 14 2 21 -23 6 -18 33 8
40 12 3 10 5 -6 6 -12 0 -25 -5 -28 -13z"/>
<path d="M7306 3783 c-11 -11 -6 -23 9 -23 8 0 15 4 15 9 0 13 -16 22 -24 14z"/>
<path d="M7760 3734 c0 -8 5 -12 10 -9 6 4 8 11 5 16 -9 14 -15 11 -15 -7z"/>
<path d="M140 3345 c0 -206 3 -375 8 -375 4 0 7 169 7 375 0 206 -3 375 -7
375 -5 0 -8 -169 -8 -375z"/>
<path d="M2450 3343 c3 -288 6 -341 10 -224 5 141 7 155 24 161 19 6 19 7 -2
12 -22 6 -22 8 -22 217 0 116 -3 211 -7 211 -5 0 -6 -170 -3 -377z"/>
<path d="M7198 3463 c-2 -87 -2 -256 0 -375 l3 -218 1159 0 1160 0 0 375 0
375 -1160 0 -1159 0 -3 -157z m344 107 c-17 -30 -17 -30 -34 -10 -9 11 -22 20
-30 20 -10 0 -9 -3 2 -10 9 -6 10 -10 3 -10 -6 0 -15 5 -18 10 -3 6 -11 10
-16 10 -6 0 -7 -4 -4 -10 4 -6 -11 -10 -39 -10 -25 0 -48 5 -52 12 -5 8 -10 6
-15 -8 -6 -15 -8 -16 -8 -3 -1 27 -29 30 -46 6 -8 -12 -15 -17 -15 -12 0 6 -5
3 -10 -5 -8 -12 -10 -10 -10 8 0 20 -2 21 -14 10 -8 -8 -16 -23 -19 -34 -2
-10 -5 0 -6 23 l-1 41 175 2 174 1 -17 -31z m138 14 c0 -8 -4 -13 -8 -10 -5 3
-25 6 -45 8 -53 3 -46 18 8 18 34 0 45 -4 45 -16z m190 7 c0 -5 -18 -8 -40 -8
-22 1 -40 5 -40 9 0 4 18 8 40 8 22 0 40 -4 40 -9z m30 5 c0 -3 -4 -8 -10 -11
-5 -3 -10 -1 -10 4 0 6 5 11 10 11 6 0 10 -2 10 -4z m60 0 c0 -11 -19 -15 -25
-6 -3 5 1 10 9 10 9 0 16 -2 16 -4z m80 -5 c0 -5 -14 -14 -30 -20 -18 -6 -28
-6 -25 -1 4 6 1 10 -4 10 -6 0 -11 5 -11 10 0 6 16 10 35 10 19 0 35 -4 35 -9z
m45 -1 c3 -5 1 -10 -4 -10 -6 0 -11 5 -11 10 0 6 2 10 4 10 3 0 8 -4 11 -10z
m330 0 c-3 -5 -36 -10 -73 -10 -37 0 -76 0 -87 0 -11 0 -37 0 -58 0 -45 0 -60
-7 -51 -22 4 -7 2 -8 -5 -4 -6 4 -9 12 -6 17 4 5 -3 9 -14 9 -12 0 -21 5 -21
10 0 6 60 10 161 10 102 0 158 -4 154 -10z m60 0 c-3 -5 -10 -10 -16 -10 -5 0
-9 5 -9 10 0 6 7 10 16 10 8 0 12 -4 9 -10z m55 0 c0 -5 -4 -10 -10 -10 -5 0
-10 5 -10 10 0 6 5 10 10 10 6 0 10 -4 10 -10z m65 0 c-3 -5 -17 -10 -31 -10
-13 0 -24 5 -24 10 0 6 14 10 31 10 17 0 28 -4 24 -10z m883 -2 c-3 -7 -16
-12 -29 -10 -16 2 -20 0 -11 -6 7 -5 -152 -8 -370 -8 -396 1 -432 0 -422 -15
3 -5 1 -9 -4 -9 -5 0 -9 13 -10 29 l-1 30 426 1 c341 0 424 -2 421 -12z m19
-20 c-3 -7 -5 -2 -5 12 0 14 2 19 5 13 2 -7 2 -19 0 -25z m-1360 -50 c-3 -8
-6 -5 -6 6 -1 11 2 17 5 13 3 -3 4 -12 1 -19z"/>
<path d="M7378 3573 c7 -3 16 -2 19 1 4 3 -2 6 -13 5 -11 0 -14 -3 -6 -6z"/>
<path d="M1208 3564 c-5 -4 -8 -21 -7 -38 0 -30 0 -30 10 -7 11 27 8 57 -3 45z"/>
<path d="M490 3528 c0 -37 7 -34 14 5 2 15 0 27 -5 27 -5 0 -9 -14 -9 -32z"/>
<path d="M792 3530 c0 -19 2 -27 5 -17 2 9 2 25 0 35 -3 9 -5 1 -5 -18z"/>
<path d="M980 3552 c0 -6 5 -14 11 -17 6 -4 8 -13 5 -21 -3 -8 -1 -14 4 -14
15 0 12 36 -5 50 -9 8 -15 9 -15 2z"/>
<path d="M1550 3553 c0 -6 4 -14 10 -18 5 -3 6 -13 3 -22 -4 -11 -3 -14 5 -9
16 9 15 18 -3 42 -8 10 -15 14 -15 7z"/>
<path d="M236 3543 c-11 -11 -6 -23 9 -23 8 0 15 4 15 9 0 13 -16 22 -24 14z"/>
<path d="M577 3520 c3 -11 7 -20 9 -20 2 0 4 9 4 20 0 11 -4 20 -9 20 -5 0 -7
-9 -4 -20z"/>
<path d="M604 3529 c-3 -6 -1 -16 5 -22 8 -8 11 -5 11 11 0 24 -5 28 -16 11z"/>
<path d="M662 3520 c0 -14 2 -19 5 -12 2 6 2 18 0 25 -3 6 -5 1 -5 -13z"/>
<path d="M702 3520 c0 -14 2 -19 5 -12 2 6 2 18 0 25 -3 6 -5 1 -5 -13z"/>
<path d="M720 3516 c0 -14 5 -28 10 -31 6 -3 10 -1 10 4 0 6 7 11 15 11 9 0
15 9 14 23 -1 16 -2 18 -6 5 -5 -22 -23 -24 -23 -3 0 8 -4 15 -10 15 -5 0 -10
-11 -10 -24z"/>
<path d="M850 3520 c0 -11 5 -20 10 -20 6 0 10 9 10 20 0 11 -4 20 -10 20 -5
0 -10 -9 -10 -20z"/>
<path d="M880 3520 c0 -11 4 -20 8 -20 4 0 8 9 8 20 0 11 -4 20 -8 20 -4 0 -8
-9 -8 -20z"/>
<path d="M932 3520 c0 -14 2 -19 5 -12 2 6 2 18 0 25 -3 6 -5 1 -5 -13z"/>
<path d="M960 3520 c0 -11 4 -20 9 -20 5 0 7 9 4 20 -3 11 -7 20 -9 20 -2 0
-4 -9 -4 -20z"/>
<path d="M1020 3518 c0 -19 2 -20 10 -8 13 19 13 30 0 30 -5 0 -10 -10 -10
-22z"/>
<path d="M1057 3520 c3 -11 7 -20 9 -20 2 0 4 9 4 20 0 11 -4 20 -9 20 -5 0
-7 -9 -4 -20z"/>
<path d="M1142 3520 c0 -14 2 -19 5 -12 2 6 2 18 0 25 -3 6 -5 1 -5 -13z"/>
<path d="M1174 3521 c0 -11 4 -17 8 -15 4 3 8 12 8 20 0 8 -4 14 -8 14 -4 0
-8 -9 -8 -19z"/>
<path d="M1242 3520 c0 -14 2 -19 5 -12 2 6 2 18 0 25 -3 6 -5 1 -5 -13z"/>
<path d="M1267 3520 c-3 -11 -1 -20 4 -20 5 0 9 9 9 20 0 11 -2 20 -4 20 -2 0
-6 -9 -9 -20z"/>
<path d="M1300 3535 c0 -18 19 -40 26 -32 4 4 0 15 -9 24 -9 10 -17 13 -17 8z"/>
<path d="M1344 3529 c-3 -6 -1 -16 5 -22 8 -8 11 -5 11 11 0 24 -5 28 -16 11z"/>
<path d="M1422 3520 c0 -14 2 -19 5 -12 2 6 2 18 0 25 -3 6 -5 1 -5 -13z"/>
<path d="M1450 3520 c0 -11 4 -20 8 -20 4 0 8 9 8 20 0 11 -4 20 -8 20 -4 0
-8 -9 -8 -20z"/>
<path d="M1502 3520 c0 -14 2 -19 5 -12 2 6 2 18 0 25 -3 6 -5 1 -5 -13z"/>
<path d="M1526 3531 c-5 -7 -3 -18 3 -24 14 -14 20 -6 11 17 -5 15 -9 16 -14
7z"/>
<path d="M1590 3520 c0 -11 2 -20 4 -20 2 0 6 9 9 20 3 11 1 20 -4 20 -5 0 -9
-9 -9 -20z"/>
<path d="M1620 3526 c0 -8 5 -18 10 -21 6 -3 10 3 10 14 0 12 -4 21 -10 21 -5
0 -10 -6 -10 -14z"/>
<path d="M820 3510 c0 -5 5 -10 10 -10 6 0 10 5 10 10 0 6 -4 10 -10 10 -5 0
-10 -4 -10 -10z"/>
<path d="M1390 3510 c0 -5 5 -10 10 -10 6 0 10 5 10 10 0 6 -4 10 -10 10 -5 0
-10 -4 -10 -10z"/>
<path d="M490 3425 c-18 -22 -8 -50 20 -52 14 -1 18 1 8 3 -26 8 -29 32 -5 49
16 11 18 15 5 15 -8 0 -21 -7 -28 -15z"/>
<path d="M553 3405 c0 -22 2 -30 4 -17 2 12 2 30 0 40 -3 9 -5 -1 -4 -23z"/>
<path d="M710 3403 c0 -43 6 -41 13 5 3 17 1 32 -4 32 -5 0 -9 -16 -9 -37z"/>
<path d="M230 3410 c0 -5 7 -10 15 -10 8 0 15 5 15 10 0 6 -7 10 -15 10 -8 0
-15 -4 -15 -10z"/>
<path d="M587 3400 c-12 -12 -15 -20 -8 -25 6 -3 11 0 11 7 0 10 3 9 10 -2 8
-12 10 -12 16 3 10 27 -8 37 -29 17z"/>
<path d="M630 3411 c0 -6 5 -13 10 -16 6 -4 8 -11 5 -16 -4 -5 -2 -9 3 -9 17
0 21 12 9 31 -13 20 -27 25 -27 10z"/>
<path d="M682 3395 c0 -16 2 -22 5 -12 2 9 2 23 0 30 -3 6 -5 -1 -5 -18z"/>
<path d="M777 3413 c-14 -14 -7 -43 11 -42 10 0 12 3 5 6 -7 2 -13 11 -13 18
0 7 6 16 13 18 6 3 7 6 1 6 -6 1 -14 -2 -17 -6z"/>
<path d="M833 3404 c-19 -20 -16 -34 7 -34 13 0 20 7 20 19 0 26 -12 32 -27
15z"/>
<path d="M874 3405 c-7 -17 3 -35 18 -35 7 0 7 4 -1 13 -8 10 -7 17 1 25 9 9
9 12 0 12 -7 0 -15 -7 -18 -15z"/>
<path d="M954 3405 c-4 -9 -2 -21 4 -27 15 -15 44 -1 40 19 -4 23 -36 29 -44
8z m36 -10 c0 -8 -4 -15 -9 -15 -13 0 -22 16 -14 24 11 11 23 6 23 -9z"/>
<path d="M1017 3413 c-4 -3 -7 -13 -7 -22 1 -14 2 -13 11 2 14 23 27 21 32 -5
4 -20 4 -19 6 5 1 20 -4 27 -17 27 -10 0 -22 -3 -25 -7z"/>
<path d="M741 3394 c0 -11 3 -14 6 -6 3 7 2 16 -1 19 -3 4 -6 -2 -5 -13z"/>
<path d="M932 3390 c0 -14 2 -19 5 -12 2 6 2 18 0 25 -3 6 -5 1 -5 -13z"/>
<path d="M492 3281 c-9 -27 -9 -28 19 -27 16 1 29 2 29 3 0 1 -4 13 -10 27
-12 34 -26 33 -38 -3z"/>
<path d="M560 3295 c-7 -8 -10 -22 -6 -30 9 -25 21 -17 21 15 0 35 1 34 -15
15z"/>
<path d="M620 3280 c0 -16 4 -30 8 -30 5 0 7 14 4 30 -2 17 -6 30 -8 30 -2 0
-4 -13 -4 -30z"/>
<path d="M236 3291 c-4 -5 -2 -12 3 -15 5 -4 12 -2 15 3 4 5 2 12 -3 15 -5 4
-12 2 -15 -3z"/>
<path d="M6928 3293 c18 -2 45 -2 60 0 15 2 0 4 -33 4 -33 0 -45 -2 -27 -4z"/>
<path d="M670 3283 c0 -14 19 -38 25 -32 8 8 -5 39 -16 39 -5 0 -9 -3 -9 -7z"/>
<path d="M6698 3283 c7 -3 16 -2 19 1 4 3 -2 6 -13 5 -11 0 -14 -3 -6 -6z"/>
<path d="M6763 3283 c9 -2 25 -2 35 0 9 3 1 5 -18 5 -19 0 -27 -2 -17 -5z"/>
<path d="M2618 3263 c7 -3 16 -2 19 1 4 3 -2 6 -13 5 -11 0 -14 -3 -6 -6z"/>
<path d="M6298 3263 c12 -2 32 -2 45 0 12 2 2 4 -23 4 -25 0 -35 -2 -22 -4z"/>
<path d="M2693 3253 c9 -2 23 -2 30 0 6 3 -1 5 -18 5 -16 0 -22 -2 -12 -5z"/>
<path d="M6033 3253 c15 -2 39 -2 55 0 15 2 2 4 -28 4 -30 0 -43 -2 -27 -4z"/>
<path d="M6143 3253 c9 -2 25 -2 35 0 9 3 1 5 -18 5 -19 0 -27 -2 -17 -5z"/>
<path d="M5863 3243 c9 -2 23 -2 30 0 6 3 -1 5 -18 5 -16 0 -22 -2 -12 -5z"/>
<path d="M2913 3223 c9 -2 25 -2 35 0 9 3 1 5 -18 5 -19 0 -27 -2 -17 -5z"/>
<path d="M2998 3213 c7 -3 16 -2 19 1 4 3 -2 6 -13 5 -11 0 -14 -3 -6 -6z"/>
<path d="M3148 3193 c6 -2 18 -2 25 0 6 3 1 5 -13 5 -14 0 -19 -2 -12 -5z"/>
<path d="M492 3158 c-2 -32 1 -38 18 -38 28 0 43 32 25 56 -13 18 -14 17 -12
-10 3 -41 -21 -45 -26 -4 l-4 33 -1 -37z"/>
<path d="M742 3160 c0 -19 2 -27 5 -17 2 9 2 25 0 35 -3 9 -5 1 -5 -18z"/>
<path d="M881 3161 c-1 -19 2 -31 6 -28 3 4 12 2 20 -4 18 -15 18 5 0 23 -8 7
-16 20 -20 28 -3 8 -6 0 -6 -19z"/>
<path d="M1514 3166 c-3 -14 -2 -31 3 -40 6 -11 8 -3 8 24 0 46 -2 50 -11 16z"/>
<path d="M1550 3154 c0 -31 3 -35 21 -32 33 5 48 34 28 53 -14 15 -15 13 -11
-15 3 -23 1 -30 -13 -30 -14 0 -16 7 -13 30 3 17 1 30 -4 30 -4 0 -8 -16 -8
-36z"/>
<path d="M1677 3183 c-4 -3 -7 -20 -7 -36 0 -38 11 -29 16 13 4 31 2 35 -9 23z"/>
<path d="M1700 3170 c0 -19 3 -21 12 -12 9 9 9 15 0 24 -9 9 -12 7 -12 -12z"/>
<path d="M1735 3150 c0 -21 3 -36 8 -33 4 2 7 17 7 33 0 16 -3 31 -7 33 -5 3
-8 -12 -8 -33z"/>
<path d="M3228 3183 c7 -3 16 -2 19 1 4 3 -2 6 -13 5 -11 0 -14 -3 -6 -6z"/>
<path d="M618 3175 c-7 -7 3 -55 11 -55 8 0 7 47 -1 55 -2 3 -7 3 -10 0z"/>
<path d="M1300 3157 c0 -14 4 -28 9 -32 5 -3 8 6 7 20 -4 35 -16 44 -16 12z"/>
<path d="M1622 3154 c2 -19 10 -30 22 -32 18 -4 19 -3 3 13 -10 9 -15 20 -12
25 3 5 0 12 -6 15 -7 5 -9 -3 -7 -21z"/>
<path d="M230 3160 c0 -5 7 -10 15 -10 8 0 15 5 15 10 0 6 -7 10 -15 10 -8 0
-15 -4 -15 -10z"/>
<path d="M573 3155 c-19 -21 -16 -35 7 -35 15 0 20 7 20 25 0 28 -9 31 -27 10z"/>
<path d="M680 3148 c0 -17 -3 -19 -9 -9 -5 8 -11 9 -15 3 -8 -14 11 -25 29
-18 17 6 20 32 5 41 -6 3 -10 -4 -10 -17z"/>
<path d="M766 3158 c-10 -21 0 -38 22 -38 11 0 13 3 6 8 -7 4 -14 16 -16 27
-4 18 -6 18 -12 3z"/>
<path d="M790 3161 c0 -6 5 -13 10 -16 6 -3 10 1 10 9 0 9 -4 16 -10 16 -5 0
-10 -4 -10 -9z"/>
<path d="M851 3150 c-1 -18 -4 -21 -10 -11 -6 9 -11 10 -15 2 -7 -11 20 -28
30 -18 3 3 4 16 1 29 -4 23 -4 23 -6 -2z"/>
<path d="M960 3133 c0 -21 4 -33 8 -27 4 6 15 13 25 17 25 9 17 41 -11 45 -19
3 -22 -1 -22 -35z m30 11 c0 -8 -4 -12 -10 -9 -5 3 -10 10 -10 16 0 5 5 9 10
9 6 0 10 -7 10 -16z"/>
<path d="M1021 3143 c0 -16 3 -22 6 -13 3 8 10 21 16 28 7 8 5 12 -7 12 -11 0
-16 -8 -15 -27z"/>
<path d="M1064 3155 c-8 -19 3 -35 24 -34 11 0 12 3 5 6 -7 2 -13 11 -13 19 0
8 6 11 17 7 11 -4 14 -3 9 5 -10 17 -36 15 -42 -3z"/>
<path d="M1126 3150 c3 -14 8 -27 10 -29 6 -7 24 11 24 25 0 9 -5 12 -11 8 -6
-3 -16 0 -21 7 -6 10 -7 6 -2 -11z"/>
<path d="M1176 3161 c-10 -15 5 -41 23 -40 10 0 11 2 4 6 -7 2 -13 11 -13 19
0 8 6 11 15 8 8 -4 15 -1 15 5 0 13 -36 15 -44 2z"/>
<path d="M1241 3148 c1 -17 2 -19 6 -5 2 9 8 17 13 17 5 0 11 -8 13 -17 4 -14
5 -12 6 5 1 16 -5 22 -19 22 -14 0 -20 -6 -19 -22z"/>
<path d="M1342 3150 c0 -14 2 -19 5 -12 2 6 2 18 0 25 -3 6 -5 1 -5 -13z"/>
<path d="M1363 3154 c-3 -8 -1 -20 5 -26 16 -16 42 -2 42 22 0 24 -38 28 -47
4z m37 -9 c0 -8 -4 -15 -9 -15 -13 0 -22 16 -14 24 11 11 23 6 23 -9z"/>
<path d="M1427 3163 c-11 -10 -8 -33 3 -33 6 0 10 7 10 15 0 23 18 18 23 -7 4
-20 4 -19 6 5 1 20 -4 27 -17 27 -10 0 -22 -3 -25 -7z"/>
<path d="M3368 3163 c7 -3 16 -2 19 1 4 3 -2 6 -13 5 -11 0 -14 -3 -6 -6z"/>
</g>
</svg>
